000 (3445804.007.000) 01/29 23:49:27 Job submitted from host: <188.185.71.142:9618?addrs=188.185.71.142-9618+[2001-1458-d00-7--100-388]-9618&alias=bigbird09.cern.ch&noUDP&sock=schedd_2208_1533_7>
...
040 (3445804.007.000) 01/30 04:11:56 Started transferring input files
	Transferring to host: <128.142.65.132:9618?addrs=128.142.65.132-9618+[2001-1458-301-4c--100-19]-9618&noUDP&sock=14672_804e_16046>
...
040 (3445804.007.000) 01/30 04:11:56 Finished transferring input files
...
001 (3445804.007.000) 01/30 04:11:57 Job executing on host: <128.142.65.132:9618?addrs=128.142.65.132-9618+[2001-1458-301-4c--100-19]-9618&noUDP&sock=14467_bcb6_3>
...
006 (3445804.007.000) 01/30 04:12:06 Image size of job updated: 1476
	2  -  MemoryUsage of job (MB)
	1476  -  ResidentSetSize of job (KB)
...
006 (3445804.007.000) 01/30 04:17:07 Image size of job updated: 384196
	342  -  MemoryUsage of job (MB)
	350144  -  ResidentSetSize of job (KB)
...
006 (3445804.007.000) 01/30 04:22:07 Image size of job updated: 394844
	353  -  MemoryUsage of job (MB)
	360624  -  ResidentSetSize of job (KB)
...
006 (3445804.007.000) 01/30 04:37:09 Image size of job updated: 394848
	353  -  MemoryUsage of job (MB)
	360628  -  ResidentSetSize of job (KB)
...
006 (3445804.007.000) 01/30 05:27:14 Image size of job updated: 394876
	353  -  MemoryUsage of job (MB)
	360656  -  ResidentSetSize of job (KB)
...
006 (3445804.007.000) 01/30 07:07:23 Image size of job updated: 394940
	353  -  MemoryUsage of job (MB)
	360656  -  ResidentSetSize of job (KB)
...
006 (3445804.007.000) 01/30 09:07:35 Image size of job updated: 394952
	353  -  MemoryUsage of job (MB)
	360668  -  ResidentSetSize of job (KB)
...
006 (3445804.007.000) 01/30 09:12:36 Image size of job updated: 394988
	353  -  MemoryUsage of job (MB)
	360704  -  ResidentSetSize of job (KB)
...
006 (3445804.007.000) 01/30 09:22:36 Image size of job updated: 394988
	353  -  MemoryUsage of job (MB)
	360712  -  ResidentSetSize of job (KB)
...
006 (3445804.007.000) 01/30 09:27:37 Image size of job updated: 394988
	353  -  MemoryUsage of job (MB)
	360764  -  ResidentSetSize of job (KB)
...
006 (3445804.007.000) 01/30 09:42:38 Image size of job updated: 395120
	353  -  MemoryUsage of job (MB)
	360900  -  ResidentSetSize of job (KB)
...
006 (3445804.007.000) 01/30 09:47:38 Image size of job updated: 395140
	353  -  MemoryUsage of job (MB)
	360920  -  ResidentSetSize of job (KB)
...
006 (3445804.007.000) 01/30 09:52:38 Image size of job updated: 395216
	353  -  MemoryUsage of job (MB)
	360996  -  ResidentSetSize of job (KB)
...
006 (3445804.007.000) 01/30 09:57:39 Image size of job updated: 395252
	353  -  MemoryUsage of job (MB)
	361032  -  ResidentSetSize of job (KB)
...
006 (3445804.007.000) 01/30 10:02:40 Image size of job updated: 395372
	353  -  MemoryUsage of job (MB)
	361152  -  ResidentSetSize of job (KB)
...
006 (3445804.007.000) 01/30 10:11:30 Image size of job updated: 395544
	353  -  MemoryUsage of job (MB)
	361324  -  ResidentSetSize of job (KB)
...
006 (3445804.007.000) 01/30 10:23:01 Image size of job updated: 395668
	353  -  MemoryUsage of job (MB)
	361448  -  ResidentSetSize of job (KB)
...
006 (3445804.007.000) 01/30 10:32:13 Image size of job updated: 395800
	354  -  MemoryUsage of job (MB)
	361580  -  ResidentSetSize of job (KB)
...
006 (3445804.007.000) 01/30 10:37:45 Image size of job updated: 395824
	354  -  MemoryUsage of job (MB)
	361604  -  ResidentSetSize of job (KB)
...
006 (3445804.007.000) 01/30 10:42:45 Image size of job updated: 395960
	354  -  MemoryUsage of job (MB)
	361740  -  ResidentSetSize of job (KB)
...
006 (3445804.007.000) 01/30 10:47:46 Image size of job updated: 396092
	354  -  MemoryUsage of job (MB)
	361872  -  ResidentSetSize of job (KB)
...
006 (3445804.007.000) 01/30 10:52:47 Image size of job updated: 396152
	354  -  MemoryUsage of job (MB)
	361932  -  ResidentSetSize of job (KB)
...
006 (3445804.007.000) 01/30 10:57:47 Image size of job updated: 396244
	354  -  MemoryUsage of job (MB)
	362024  -  ResidentSetSize of job (KB)
...
006 (3445804.007.000) 01/30 11:02:48 Image size of job updated: 396324
	354  -  MemoryUsage of job (MB)
	362104  -  ResidentSetSize of job (KB)
...
006 (3445804.007.000) 01/30 11:07:49 Image size of job updated: 396396
	354  -  MemoryUsage of job (MB)
	362176  -  ResidentSetSize of job (KB)
...
006 (3445804.007.000) 01/30 11:12:49 Image size of job updated: 396488
	354  -  MemoryUsage of job (MB)
	362268  -  ResidentSetSize of job (KB)
...
006 (3445804.007.000) 01/30 11:17:50 Image size of job updated: 396520
	354  -  MemoryUsage of job (MB)
	362300  -  ResidentSetSize of job (KB)
...
006 (3445804.007.000) 01/30 11:22:51 Image size of job updated: 396576
	354  -  MemoryUsage of job (MB)
	362356  -  ResidentSetSize of job (KB)
...
006 (3445804.007.000) 01/30 11:27:51 Image size of job updated: 396724
	355  -  MemoryUsage of job (MB)
	362504  -  ResidentSetSize of job (KB)
...
006 (3445804.007.000) 01/30 11:37:53 Image size of job updated: 396828
	355  -  MemoryUsage of job (MB)
	362608  -  ResidentSetSize of job (KB)
...
006 (3445804.007.000) 01/30 11:42:53 Image size of job updated: 396892
	355  -  MemoryUsage of job (MB)
	362672  -  ResidentSetSize of job (KB)
...
006 (3445804.007.000) 01/30 11:47:53 Image size of job updated: 396968
	355  -  MemoryUsage of job (MB)
	362748  -  ResidentSetSize of job (KB)
...
006 (3445804.007.000) 01/30 11:52:54 Image size of job updated: 397112
	355  -  MemoryUsage of job (MB)
	362892  -  ResidentSetSize of job (KB)
...
006 (3445804.007.000) 01/30 11:57:54 Image size of job updated: 397124
	355  -  MemoryUsage of job (MB)
	362904  -  ResidentSetSize of job (KB)
...
006 (3445804.007.000) 01/30 12:02:54 Image size of job updated: 397272
	355  -  MemoryUsage of job (MB)
	363052  -  ResidentSetSize of job (KB)
...
006 (3445804.007.000) 01/30 12:12:55 Image size of job updated: 397424
	355  -  MemoryUsage of job (MB)
	363204  -  ResidentSetSize of job (KB)
...
006 (3445804.007.000) 01/30 12:17:55 Image size of job updated: 397484
	355  -  MemoryUsage of job (MB)
	363264  -  ResidentSetSize of job (KB)
...
006 (3445804.007.000) 01/30 12:22:56 Image size of job updated: 397560
	355  -  MemoryUsage of job (MB)
	363340  -  ResidentSetSize of job (KB)
...
006 (3445804.007.000) 01/30 12:27:56 Image size of job updated: 397620
	355  -  MemoryUsage of job (MB)
	363340  -  ResidentSetSize of job (KB)
...
006 (3445804.007.000) 01/30 12:32:56 Image size of job updated: 397748
	355  -  MemoryUsage of job (MB)
	363468  -  ResidentSetSize of job (KB)
...
006 (3445804.007.000) 01/30 12:37:57 Image size of job updated: 397816
	356  -  MemoryUsage of job (MB)
	363536  -  ResidentSetSize of job (KB)
...
006 (3445804.007.000) 01/30 12:42:57 Image size of job updated: 397896
	356  -  MemoryUsage of job (MB)
	363616  -  ResidentSetSize of job (KB)
...
006 (3445804.007.000) 01/30 12:47:57 Image size of job updated: 397992
	356  -  MemoryUsage of job (MB)
	363712  -  ResidentSetSize of job (KB)
...
006 (3445804.007.000) 01/30 12:52:58 Image size of job updated: 398008
	356  -  MemoryUsage of job (MB)
	363728  -  ResidentSetSize of job (KB)
...
006 (3445804.007.000) 01/30 12:57:59 Image size of job updated: 398052
	356  -  MemoryUsage of job (MB)
	363772  -  ResidentSetSize of job (KB)
...
006 (3445804.007.000) 01/30 13:02:59 Image size of job updated: 398140
	356  -  MemoryUsage of job (MB)
	363852  -  ResidentSetSize of job (KB)
...
006 (3445804.007.000) 01/30 13:08:00 Image size of job updated: 398212
	356  -  MemoryUsage of job (MB)
	363924  -  ResidentSetSize of job (KB)
...
006 (3445804.007.000) 01/30 13:13:01 Image size of job updated: 398264
	356  -  MemoryUsage of job (MB)
	363924  -  ResidentSetSize of job (KB)
...
006 (3445804.007.000) 01/30 13:18:01 Image size of job updated: 398344
	356  -  MemoryUsage of job (MB)
	363924  -  ResidentSetSize of job (KB)
...
006 (3445804.007.000) 01/30 13:23:02 Image size of job updated: 398460
	356  -  MemoryUsage of job (MB)
	363924  -  ResidentSetSize of job (KB)
...
006 (3445804.007.000) 01/30 13:33:03 Image size of job updated: 398460
	356  -  MemoryUsage of job (MB)
	363972  -  ResidentSetSize of job (KB)
...
006 (3445804.007.000) 01/30 13:38:04 Image size of job updated: 398460
	356  -  MemoryUsage of job (MB)
	363980  -  ResidentSetSize of job (KB)
...
006 (3445804.007.000) 01/30 13:43:05 Image size of job updated: 398460
	356  -  MemoryUsage of job (MB)
	364208  -  ResidentSetSize of job (KB)
...
006 (3445804.007.000) 01/30 13:53:05 Image size of job updated: 398460
	358  -  MemoryUsage of job (MB)
	365804  -  ResidentSetSize of job (KB)
...
006 (3445804.007.000) 01/30 13:58:06 Image size of job updated: 398460
	359  -  MemoryUsage of job (MB)
	366976  -  ResidentSetSize of job (KB)
...
006 (3445804.007.000) 01/30 14:03:06 Image size of job updated: 398460
	359  -  MemoryUsage of job (MB)
	367088  -  ResidentSetSize of job (KB)
...
006 (3445804.007.000) 01/30 14:38:08 Image size of job updated: 398460
	359  -  MemoryUsage of job (MB)
	367140  -  ResidentSetSize of job (KB)
...
006 (3445804.007.000) 01/30 14:43:10 Image size of job updated: 398460
	359  -  MemoryUsage of job (MB)
	367180  -  ResidentSetSize of job (KB)
...
006 (3445804.007.000) 01/30 14:48:10 Image size of job updated: 398460
	359  -  MemoryUsage of job (MB)
	367208  -  ResidentSetSize of job (KB)
...
006 (3445804.007.000) 01/30 14:53:10 Image size of job updated: 398460
	359  -  MemoryUsage of job (MB)
	367332  -  ResidentSetSize of job (KB)
...
006 (3445804.007.000) 01/30 15:03:12 Image size of job updated: 398460
	359  -  MemoryUsage of job (MB)
	367388  -  ResidentSetSize of job (KB)
...
006 (3445804.007.000) 01/30 15:08:12 Image size of job updated: 398460
	359  -  MemoryUsage of job (MB)
	367532  -  ResidentSetSize of job (KB)
...
006 (3445804.007.000) 01/30 15:18:14 Image size of job updated: 398460
	360  -  MemoryUsage of job (MB)
	367644  -  ResidentSetSize of job (KB)
...
006 (3445804.007.000) 01/30 15:23:14 Image size of job updated: 398460
	360  -  MemoryUsage of job (MB)
	367696  -  ResidentSetSize of job (KB)
...
006 (3445804.007.000) 01/30 15:28:15 Image size of job updated: 398460
	360  -  MemoryUsage of job (MB)
	367708  -  ResidentSetSize of job (KB)
...
006 (3445804.007.000) 01/30 15:33:16 Image size of job updated: 398460
	360  -  MemoryUsage of job (MB)
	367884  -  ResidentSetSize of job (KB)
...
006 (3445804.007.000) 01/30 15:38:16 Image size of job updated: 398460
	360  -  MemoryUsage of job (MB)
	367892  -  ResidentSetSize of job (KB)
...
006 (3445804.007.000) 01/30 15:43:17 Image size of job updated: 398460
	360  -  MemoryUsage of job (MB)
	367932  -  ResidentSetSize of job (KB)
...
006 (3445804.007.000) 01/30 15:48:18 Image size of job updated: 398460
	360  -  MemoryUsage of job (MB)
	368096  -  ResidentSetSize of job (KB)
...
006 (3445804.007.000) 01/30 15:53:18 Image size of job updated: 398460
	360  -  MemoryUsage of job (MB)
	368156  -  ResidentSetSize of job (KB)
...
006 (3445804.007.000) 01/30 15:58:18 Image size of job updated: 398460
	360  -  MemoryUsage of job (MB)
	368196  -  ResidentSetSize of job (KB)
...
006 (3445804.007.000) 01/30 16:03:19 Image size of job updated: 398460
	360  -  MemoryUsage of job (MB)
	368292  -  ResidentSetSize of job (KB)
...
006 (3445804.007.000) 01/30 16:13:19 Image size of job updated: 398460
	360  -  MemoryUsage of job (MB)
	368392  -  ResidentSetSize of job (KB)
...
006 (3445804.007.000) 01/30 16:18:20 Image size of job updated: 398460
	360  -  MemoryUsage of job (MB)
	368424  -  ResidentSetSize of job (KB)
...
006 (3445804.007.000) 01/30 16:23:20 Image size of job updated: 398460
	360  -  MemoryUsage of job (MB)
	368492  -  ResidentSetSize of job (KB)
...
006 (3445804.007.000) 01/30 16:28:20 Image size of job updated: 398460
	360  -  MemoryUsage of job (MB)
	368536  -  ResidentSetSize of job (KB)
...
006 (3445804.007.000) 01/30 16:33:22 Image size of job updated: 398460
	360  -  MemoryUsage of job (MB)
	368548  -  ResidentSetSize of job (KB)
...
006 (3445804.007.000) 01/30 16:38:22 Image size of job updated: 398460
	361  -  MemoryUsage of job (MB)
	368660  -  ResidentSetSize of job (KB)
...
006 (3445804.007.000) 01/30 16:43:22 Image size of job updated: 398460
	361  -  MemoryUsage of job (MB)
	368756  -  ResidentSetSize of job (KB)
...
006 (3445804.007.000) 01/30 16:48:23 Image size of job updated: 398460
	361  -  MemoryUsage of job (MB)
	368840  -  ResidentSetSize of job (KB)
...
006 (3445804.007.000) 01/30 16:53:24 Image size of job updated: 398460
	361  -  MemoryUsage of job (MB)
	368892  -  ResidentSetSize of job (KB)
...
006 (3445804.007.000) 01/30 16:58:24 Image size of job updated: 398460
	361  -  MemoryUsage of job (MB)
	368944  -  ResidentSetSize of job (KB)
...
006 (3445804.007.000) 01/30 17:03:25 Image size of job updated: 398460
	361  -  MemoryUsage of job (MB)
	369076  -  ResidentSetSize of job (KB)
...
006 (3445804.007.000) 01/30 17:08:26 Image size of job updated: 398460
	361  -  MemoryUsage of job (MB)
	369104  -  ResidentSetSize of job (KB)
...
006 (3445804.007.000) 01/30 17:13:26 Image size of job updated: 398460
	361  -  MemoryUsage of job (MB)
	369196  -  ResidentSetSize of job (KB)
...
006 (3445804.007.000) 01/30 17:18:27 Image size of job updated: 398460
	361  -  MemoryUsage of job (MB)
	369336  -  ResidentSetSize of job (KB)
...
006 (3445804.007.000) 01/30 17:23:28 Image size of job updated: 398460
	361  -  MemoryUsage of job (MB)
	369404  -  ResidentSetSize of job (KB)
...
006 (3445804.007.000) 01/30 17:28:28 Image size of job updated: 398460
	361  -  MemoryUsage of job (MB)
	369424  -  ResidentSetSize of job (KB)
...
006 (3445804.007.000) 01/30 17:33:29 Image size of job updated: 398460
	361  -  MemoryUsage of job (MB)
	369472  -  ResidentSetSize of job (KB)
...
006 (3445804.007.000) 01/30 17:38:30 Image size of job updated: 398460
	361  -  MemoryUsage of job (MB)
	369608  -  ResidentSetSize of job (KB)
...
006 (3445804.007.000) 01/30 17:43:30 Image size of job updated: 398460
	361  -  MemoryUsage of job (MB)
	369648  -  ResidentSetSize of job (KB)
...
006 (3445804.007.000) 01/30 17:48:31 Image size of job updated: 398460
	362  -  MemoryUsage of job (MB)
	369736  -  ResidentSetSize of job (KB)
...
006 (3445804.007.000) 01/30 17:53:32 Image size of job updated: 398460
	362  -  MemoryUsage of job (MB)
	369780  -  ResidentSetSize of job (KB)
...
006 (3445804.007.000) 01/30 17:58:32 Image size of job updated: 398460
	362  -  MemoryUsage of job (MB)
	369852  -  ResidentSetSize of job (KB)
...
006 (3445804.007.000) 01/30 18:03:32 Image size of job updated: 398460
	362  -  MemoryUsage of job (MB)
	369888  -  ResidentSetSize of job (KB)
...
006 (3445804.007.000) 01/30 18:08:33 Image size of job updated: 398460
	362  -  MemoryUsage of job (MB)
	369924  -  ResidentSetSize of job (KB)
...
006 (3445804.007.000) 01/30 18:13:33 Image size of job updated: 398460
	362  -  MemoryUsage of job (MB)
	369984  -  ResidentSetSize of job (KB)
...
006 (3445804.007.000) 01/30 18:18:34 Image size of job updated: 398460
	362  -  MemoryUsage of job (MB)
	370044  -  ResidentSetSize of job (KB)
...
006 (3445804.007.000) 01/30 18:23:35 Image size of job updated: 398460
	362  -  MemoryUsage of job (MB)
	370172  -  ResidentSetSize of job (KB)
...
006 (3445804.007.000) 01/30 18:28:35 Image size of job updated: 398460
	362  -  MemoryUsage of job (MB)
	370180  -  ResidentSetSize of job (KB)
...
006 (3445804.007.000) 01/30 18:33:35 Image size of job updated: 398460
	362  -  MemoryUsage of job (MB)
	370216  -  ResidentSetSize of job (KB)
...
006 (3445804.007.000) 01/30 18:38:36 Image size of job updated: 398460
	362  -  MemoryUsage of job (MB)
	370332  -  ResidentSetSize of job (KB)
...
006 (3445804.007.000) 01/30 18:43:36 Image size of job updated: 398460
	362  -  MemoryUsage of job (MB)
	370600  -  ResidentSetSize of job (KB)
...
006 (3445804.007.000) 01/30 18:48:36 Image size of job updated: 398460
	363  -  MemoryUsage of job (MB)
	370828  -  ResidentSetSize of job (KB)
...
006 (3445804.007.000) 01/30 18:58:37 Image size of job updated: 398460
	363  -  MemoryUsage of job (MB)
	370880  -  ResidentSetSize of job (KB)
...
006 (3445804.007.000) 01/30 19:03:37 Image size of job updated: 398460
	363  -  MemoryUsage of job (MB)
	370952  -  ResidentSetSize of job (KB)
...
006 (3445804.007.000) 01/30 20:03:42 Image size of job updated: 398460
	363  -  MemoryUsage of job (MB)
	371044  -  ResidentSetSize of job (KB)
...
006 (3445804.007.000) 01/30 20:08:43 Image size of job updated: 398460
	363  -  MemoryUsage of job (MB)
	371100  -  ResidentSetSize of job (KB)
...
006 (3445804.007.000) 01/30 20:23:45 Image size of job updated: 398460
	363  -  MemoryUsage of job (MB)
	371124  -  ResidentSetSize of job (KB)
...
006 (3445804.007.000) 01/30 20:43:48 Image size of job updated: 398460
	363  -  MemoryUsage of job (MB)
	371140  -  ResidentSetSize of job (KB)
...
006 (3445804.007.000) 01/30 20:53:50 Image size of job updated: 398460
	363  -  MemoryUsage of job (MB)
	371156  -  ResidentSetSize of job (KB)
...
006 (3445804.007.000) 01/30 21:18:53 Image size of job updated: 398460
	363  -  MemoryUsage of job (MB)
	371188  -  ResidentSetSize of job (KB)
...
006 (3445804.007.000) 01/30 21:33:55 Image size of job updated: 398460
	363  -  MemoryUsage of job (MB)
	371204  -  ResidentSetSize of job (KB)
...
006 (3445804.007.000) 01/30 21:43:56 Image size of job updated: 398460
	363  -  MemoryUsage of job (MB)
	371212  -  ResidentSetSize of job (KB)
...
006 (3445804.007.000) 01/30 21:48:56 Image size of job updated: 398460
	363  -  MemoryUsage of job (MB)
	371260  -  ResidentSetSize of job (KB)
...
006 (3445804.007.000) 01/30 21:58:56 Image size of job updated: 398460
	363  -  MemoryUsage of job (MB)
	371264  -  ResidentSetSize of job (KB)
...
006 (3445804.007.000) 01/30 22:08:57 Image size of job updated: 398460
	363  -  MemoryUsage of job (MB)
	371268  -  ResidentSetSize of job (KB)
...
006 (3445804.007.000) 01/30 22:13:57 Image size of job updated: 398460
	363  -  MemoryUsage of job (MB)
	371284  -  ResidentSetSize of job (KB)
...
006 (3445804.007.000) 01/30 22:34:00 Image size of job updated: 398460
	363  -  MemoryUsage of job (MB)
	371288  -  ResidentSetSize of job (KB)
...
006 (3445804.007.000) 01/30 22:44:01 Image size of job updated: 398460
	363  -  MemoryUsage of job (MB)
	371308  -  ResidentSetSize of job (KB)
...
006 (3445804.007.000) 01/30 22:49:01 Image size of job updated: 398460
	363  -  MemoryUsage of job (MB)
	371316  -  ResidentSetSize of job (KB)
...
006 (3445804.007.000) 01/30 22:54:02 Image size of job updated: 398460
	363  -  MemoryUsage of job (MB)
	371332  -  ResidentSetSize of job (KB)
...
006 (3445804.007.000) 01/30 22:59:03 Image size of job updated: 398460
	363  -  MemoryUsage of job (MB)
	371340  -  ResidentSetSize of job (KB)
...
006 (3445804.007.000) 01/30 23:09:03 Image size of job updated: 398460
	363  -  MemoryUsage of job (MB)
	371348  -  ResidentSetSize of job (KB)
...
006 (3445804.007.000) 01/30 23:14:04 Image size of job updated: 398460
	363  -  MemoryUsage of job (MB)
	371352  -  ResidentSetSize of job (KB)
...
006 (3445804.007.000) 01/30 23:19:05 Image size of job updated: 398460
	363  -  MemoryUsage of job (MB)
	371384  -  ResidentSetSize of job (KB)
...
006 (3445804.007.000) 01/30 23:24:05 Image size of job updated: 398460
	363  -  MemoryUsage of job (MB)
	371408  -  ResidentSetSize of job (KB)
...
006 (3445804.007.000) 01/30 23:29:05 Image size of job updated: 398460
	363  -  MemoryUsage of job (MB)
	371436  -  ResidentSetSize of job (KB)
...
006 (3445804.007.000) 01/30 23:34:05 Image size of job updated: 398460
	363  -  MemoryUsage of job (MB)
	371444  -  ResidentSetSize of job (KB)
...
006 (3445804.007.000) 01/31 00:04:09 Image size of job updated: 398460
	363  -  MemoryUsage of job (MB)
	371460  -  ResidentSetSize of job (KB)
...
006 (3445804.007.000) 01/31 00:09:09 Image size of job updated: 398460
	363  -  MemoryUsage of job (MB)
	371476  -  ResidentSetSize of job (KB)
...
006 (3445804.007.000) 01/31 00:14:10 Image size of job updated: 398460
	363  -  MemoryUsage of job (MB)
	371488  -  ResidentSetSize of job (KB)
...
006 (3445804.007.000) 01/31 00:19:11 Image size of job updated: 398460
	363  -  MemoryUsage of job (MB)
	371504  -  ResidentSetSize of job (KB)
...
006 (3445804.007.000) 01/31 00:24:11 Image size of job updated: 398460
	363  -  MemoryUsage of job (MB)
	371516  -  ResidentSetSize of job (KB)
...
006 (3445804.007.000) 01/31 00:29:11 Image size of job updated: 398460
	363  -  MemoryUsage of job (MB)
	371528  -  ResidentSetSize of job (KB)
...
006 (3445804.007.000) 01/31 00:34:12 Image size of job updated: 398460
	363  -  MemoryUsage of job (MB)
	371548  -  ResidentSetSize of job (KB)
...
006 (3445804.007.000) 01/31 00:39:12 Image size of job updated: 398460
	363  -  MemoryUsage of job (MB)
	371572  -  ResidentSetSize of job (KB)
...
006 (3445804.007.000) 01/31 00:44:12 Image size of job updated: 398460
	363  -  MemoryUsage of job (MB)
	371628  -  ResidentSetSize of job (KB)
...
006 (3445804.007.000) 01/31 00:54:14 Image size of job updated: 398460
	363  -  MemoryUsage of job (MB)
	371632  -  ResidentSetSize of job (KB)
...
006 (3445804.007.000) 01/31 00:59:14 Image size of job updated: 398460
	363  -  MemoryUsage of job (MB)
	371636  -  ResidentSetSize of job (KB)
...
006 (3445804.007.000) 01/31 01:04:15 Image size of job updated: 398460
	363  -  MemoryUsage of job (MB)
	371648  -  ResidentSetSize of job (KB)
...
006 (3445804.007.000) 01/31 01:09:15 Image size of job updated: 398460
	363  -  MemoryUsage of job (MB)
	371680  -  ResidentSetSize of job (KB)
...
006 (3445804.007.000) 01/31 01:14:15 Image size of job updated: 398460
	363  -  MemoryUsage of job (MB)
	371688  -  ResidentSetSize of job (KB)
...
006 (3445804.007.000) 01/31 01:19:15 Image size of job updated: 398460
	363  -  MemoryUsage of job (MB)
	371692  -  ResidentSetSize of job (KB)
...
006 (3445804.007.000) 01/31 01:29:17 Image size of job updated: 398460
	363  -  MemoryUsage of job (MB)
	371708  -  ResidentSetSize of job (KB)
...
006 (3445804.007.000) 01/31 01:34:17 Image size of job updated: 398460
	364  -  MemoryUsage of job (MB)
	371732  -  ResidentSetSize of job (KB)
...
006 (3445804.007.000) 01/31 01:39:17 Image size of job updated: 398460
	364  -  MemoryUsage of job (MB)
	371760  -  ResidentSetSize of job (KB)
...
006 (3445804.007.000) 01/31 01:44:18 Image size of job updated: 398460
	364  -  MemoryUsage of job (MB)
	371764  -  ResidentSetSize of job (KB)
...
006 (3445804.007.000) 01/31 01:54:19 Image size of job updated: 398460
	364  -  MemoryUsage of job (MB)
	371824  -  ResidentSetSize of job (KB)
...
006 (3445804.007.000) 01/31 01:59:19 Image size of job updated: 398460
	364  -  MemoryUsage of job (MB)
	371828  -  ResidentSetSize of job (KB)
...
006 (3445804.007.000) 01/31 02:04:20 Image size of job updated: 398460
	364  -  MemoryUsage of job (MB)
	371840  -  ResidentSetSize of job (KB)
...
006 (3445804.007.000) 01/31 02:09:21 Image size of job updated: 398460
	364  -  MemoryUsage of job (MB)
	371912  -  ResidentSetSize of job (KB)
...
006 (3445804.007.000) 01/31 02:19:22 Image size of job updated: 398460
	364  -  MemoryUsage of job (MB)
	371936  -  ResidentSetSize of job (KB)
...
006 (3445804.007.000) 01/31 02:29:24 Image size of job updated: 398460
	364  -  MemoryUsage of job (MB)
	371968  -  ResidentSetSize of job (KB)
...
006 (3445804.007.000) 01/31 02:34:24 Image size of job updated: 398460
	364  -  MemoryUsage of job (MB)
	372004  -  ResidentSetSize of job (KB)
...
006 (3445804.007.000) 01/31 02:39:24 Image size of job updated: 398460
	364  -  MemoryUsage of job (MB)
	372012  -  ResidentSetSize of job (KB)
...
006 (3445804.007.000) 01/31 02:49:26 Image size of job updated: 398460
	364  -  MemoryUsage of job (MB)
	372020  -  ResidentSetSize of job (KB)
...
006 (3445804.007.000) 01/31 02:54:26 Image size of job updated: 398460
	364  -  MemoryUsage of job (MB)
	372056  -  ResidentSetSize of job (KB)
...
006 (3445804.007.000) 01/31 03:04:27 Image size of job updated: 398460
	364  -  MemoryUsage of job (MB)
	372088  -  ResidentSetSize of job (KB)
...
006 (3445804.007.000) 01/31 03:09:28 Image size of job updated: 398460
	364  -  MemoryUsage of job (MB)
	372204  -  ResidentSetSize of job (KB)
...
006 (3445804.007.000) 01/31 03:14:28 Image size of job updated: 398460
	364  -  MemoryUsage of job (MB)
	372224  -  ResidentSetSize of job (KB)
...
006 (3445804.007.000) 01/31 03:19:28 Image size of job updated: 398460
	364  -  MemoryUsage of job (MB)
	372356  -  ResidentSetSize of job (KB)
...
006 (3445804.007.000) 01/31 03:29:30 Image size of job updated: 398460
	364  -  MemoryUsage of job (MB)
	372424  -  ResidentSetSize of job (KB)
...
006 (3445804.007.000) 01/31 03:34:30 Image size of job updated: 398460
	364  -  MemoryUsage of job (MB)
	372440  -  ResidentSetSize of job (KB)
...
006 (3445804.007.000) 01/31 03:39:30 Image size of job updated: 398460
	364  -  MemoryUsage of job (MB)
	372492  -  ResidentSetSize of job (KB)
...
006 (3445804.007.000) 01/31 03:44:31 Image size of job updated: 398460
	364  -  MemoryUsage of job (MB)
	372520  -  ResidentSetSize of job (KB)
...
006 (3445804.007.000) 01/31 03:49:32 Image size of job updated: 398460
	364  -  MemoryUsage of job (MB)
	372552  -  ResidentSetSize of job (KB)
...
006 (3445804.007.000) 01/31 03:54:32 Image size of job updated: 398460
	364  -  MemoryUsage of job (MB)
	372608  -  ResidentSetSize of job (KB)
...
006 (3445804.007.000) 01/31 03:59:32 Image size of job updated: 398460
	364  -  MemoryUsage of job (MB)
	372624  -  ResidentSetSize of job (KB)
...
006 (3445804.007.000) 01/31 04:04:33 Image size of job updated: 398460
	364  -  MemoryUsage of job (MB)
	372632  -  ResidentSetSize of job (KB)
...
006 (3445804.007.000) 01/31 04:09:34 Image size of job updated: 398460
	364  -  MemoryUsage of job (MB)
	372660  -  ResidentSetSize of job (KB)
...
006 (3445804.007.000) 01/31 04:14:34 Image size of job updated: 398460
	364  -  MemoryUsage of job (MB)
	372708  -  ResidentSetSize of job (KB)
...
006 (3445804.007.000) 01/31 04:19:34 Image size of job updated: 398460
	365  -  MemoryUsage of job (MB)
	372792  -  ResidentSetSize of job (KB)
...
006 (3445804.007.000) 01/31 04:39:36 Image size of job updated: 398460
	365  -  MemoryUsage of job (MB)
	372824  -  ResidentSetSize of job (KB)
...
006 (3445804.007.000) 01/31 04:44:37 Image size of job updated: 398460
	365  -  MemoryUsage of job (MB)
	372844  -  ResidentSetSize of job (KB)
...
006 (3445804.007.000) 01/31 04:49:38 Image size of job updated: 398460
	365  -  MemoryUsage of job (MB)
	372848  -  ResidentSetSize of job (KB)
...
006 (3445804.007.000) 01/31 04:54:38 Image size of job updated: 398460
	365  -  MemoryUsage of job (MB)
	372876  -  ResidentSetSize of job (KB)
...
006 (3445804.007.000) 01/31 04:59:38 Image size of job updated: 398460
	365  -  MemoryUsage of job (MB)
	372880  -  ResidentSetSize of job (KB)
...
006 (3445804.007.000) 01/31 05:04:39 Image size of job updated: 398460
	365  -  MemoryUsage of job (MB)
	372924  -  ResidentSetSize of job (KB)
...
006 (3445804.007.000) 01/31 05:09:40 Image size of job updated: 398460
	365  -  MemoryUsage of job (MB)
	372976  -  ResidentSetSize of job (KB)
...
006 (3445804.007.000) 01/31 05:14:40 Image size of job updated: 398460
	365  -  MemoryUsage of job (MB)
	372988  -  ResidentSetSize of job (KB)
...
006 (3445804.007.000) 01/31 05:19:41 Image size of job updated: 398460
	365  -  MemoryUsage of job (MB)
	373020  -  ResidentSetSize of job (KB)
...
006 (3445804.007.000) 01/31 05:29:42 Image size of job updated: 398460
	365  -  MemoryUsage of job (MB)
	373028  -  ResidentSetSize of job (KB)
...
006 (3445804.007.000) 01/31 05:34:42 Image size of job updated: 398460
	365  -  MemoryUsage of job (MB)
	373064  -  ResidentSetSize of job (KB)
...
006 (3445804.007.000) 01/31 05:39:43 Image size of job updated: 398460
	365  -  MemoryUsage of job (MB)
	373080  -  ResidentSetSize of job (KB)
...
006 (3445804.007.000) 01/31 05:44:44 Image size of job updated: 398460
	365  -  MemoryUsage of job (MB)
	373100  -  ResidentSetSize of job (KB)
...
006 (3445804.007.000) 01/31 05:49:44 Image size of job updated: 398460
	365  -  MemoryUsage of job (MB)
	373140  -  ResidentSetSize of job (KB)
...
006 (3445804.007.000) 01/31 05:54:44 Image size of job updated: 398460
	365  -  MemoryUsage of job (MB)
	373188  -  ResidentSetSize of job (KB)
...
006 (3445804.007.000) 01/31 05:59:44 Image size of job updated: 398460
	365  -  MemoryUsage of job (MB)
	373220  -  ResidentSetSize of job (KB)
...
006 (3445804.007.000) 01/31 06:04:45 Image size of job updated: 398460
	365  -  MemoryUsage of job (MB)
	373240  -  ResidentSetSize of job (KB)
...
006 (3445804.007.000) 01/31 06:09:46 Image size of job updated: 398460
	365  -  MemoryUsage of job (MB)
	373272  -  ResidentSetSize of job (KB)
...
006 (3445804.007.000) 01/31 06:14:46 Image size of job updated: 398460
	365  -  MemoryUsage of job (MB)
	373300  -  ResidentSetSize of job (KB)
...
006 (3445804.007.000) 01/31 06:19:46 Image size of job updated: 398460
	365  -  MemoryUsage of job (MB)
	373324  -  ResidentSetSize of job (KB)
...
006 (3445804.007.000) 01/31 06:24:47 Image size of job updated: 398460
	365  -  MemoryUsage of job (MB)
	373372  -  ResidentSetSize of job (KB)
...
006 (3445804.007.000) 01/31 06:29:48 Image size of job updated: 398460
	365  -  MemoryUsage of job (MB)
	373556  -  ResidentSetSize of job (KB)
...
006 (3445804.007.000) 01/31 06:44:49 Image size of job updated: 398460
	365  -  MemoryUsage of job (MB)
	373580  -  ResidentSetSize of job (KB)
...
006 (3445804.007.000) 01/31 15:00:37 Image size of job updated: 398460
	365  -  MemoryUsage of job (MB)
	373584  -  ResidentSetSize of job (KB)
...
006 (3445804.007.000) 01/31 15:05:37 Image size of job updated: 398460
	365  -  MemoryUsage of job (MB)
	373628  -  ResidentSetSize of job (KB)
...
006 (3445804.007.000) 01/31 15:10:38 Image size of job updated: 398460
	366  -  MemoryUsage of job (MB)
	373964  -  ResidentSetSize of job (KB)
...
040 (3445804.007.000) 01/31 15:12:35 Started transferring output files
...
040 (3445804.007.000) 01/31 15:12:35 Finished transferring output files
...
005 (3445804.007.000) 01/31 15:12:35 Job terminated.
	(1) Normal termination (return value 0)
		Usr 1 09:42:48, Sys 0 00:02:46  -  Run Remote Usage
		Usr 0 00:00:00, Sys 0 00:00:00  -  Run Local Usage
		Usr 1 09:42:48, Sys 0 00:02:46  -  Total Remote Usage
		Usr 0 00:00:00, Sys 0 00:00:00  -  Total Local Usage
	34778  -  Run Bytes Sent By Job
	493  -  Run Bytes Received By Job
	34778  -  Total Bytes Sent By Job
	493  -  Total Bytes Received By Job
	Partitionable Resources :    Usage  Request Allocated 
	   Cpus                 :                 1           
	   Disk (KB)            :       47        1   2750253 
	   Memory (MB)          :      366     2000      2000 
...
