000 (3447453.008.000) 01/30 08:57:21 Job submitted from host: <188.185.71.142:9618?addrs=188.185.71.142-9618+[2001-1458-d00-7--100-388]-9618&alias=bigbird09.cern.ch&noUDP&sock=schedd_2208_1533_7>
...
040 (3447453.008.000) 01/31 05:17:59 Started transferring input files
	Transferring to host: <188.184.205.202:9618?addrs=188.184.205.202-9618+[2001-1458-301-7d--100-1cc]-9618&noUDP&sock=4198_9ee4_83919>
...
040 (3447453.008.000) 01/31 05:17:59 Finished transferring input files
...
001 (3447453.008.000) 01/31 05:18:00 Job executing on host: <188.184.205.202:9618?addrs=188.184.205.202-9618+[2001-1458-301-7d--100-1cc]-9618&noUDP&sock=2337_90eb_3>
...
006 (3447453.008.000) 01/31 05:18:08 Image size of job updated: 1340
	2  -  MemoryUsage of job (MB)
	1340  -  ResidentSetSize of job (KB)
...
006 (3447453.008.000) 01/31 05:23:08 Image size of job updated: 435864
	353  -  MemoryUsage of job (MB)
	361300  -  ResidentSetSize of job (KB)
...
006 (3447453.008.000) 01/31 06:03:13 Image size of job updated: 435864
	353  -  MemoryUsage of job (MB)
	361304  -  ResidentSetSize of job (KB)
...
006 (3447453.008.000) 01/31 06:28:15 Image size of job updated: 435864
	353  -  MemoryUsage of job (MB)
	361316  -  ResidentSetSize of job (KB)
...
006 (3447453.008.000) 01/31 09:38:34 Image size of job updated: 435864
	354  -  MemoryUsage of job (MB)
	361536  -  ResidentSetSize of job (KB)
...
006 (3447453.008.000) 01/31 09:43:34 Image size of job updated: 435864
	354  -  MemoryUsage of job (MB)
	361548  -  ResidentSetSize of job (KB)
...
006 (3447453.008.000) 01/31 10:28:39 Image size of job updated: 435864
	354  -  MemoryUsage of job (MB)
	361596  -  ResidentSetSize of job (KB)
...
006 (3447453.008.000) 01/31 10:33:39 Image size of job updated: 435864
	354  -  MemoryUsage of job (MB)
	361656  -  ResidentSetSize of job (KB)
...
006 (3447453.008.000) 01/31 10:38:39 Image size of job updated: 435864
	354  -  MemoryUsage of job (MB)
	361696  -  ResidentSetSize of job (KB)
...
006 (3447453.008.000) 01/31 10:43:40 Image size of job updated: 435904
	354  -  MemoryUsage of job (MB)
	361768  -  ResidentSetSize of job (KB)
...
006 (3447453.008.000) 01/31 11:18:44 Image size of job updated: 435940
	354  -  MemoryUsage of job (MB)
	361804  -  ResidentSetSize of job (KB)
...
006 (3447453.008.000) 01/31 11:23:44 Image size of job updated: 435972
	354  -  MemoryUsage of job (MB)
	361836  -  ResidentSetSize of job (KB)
...
006 (3447453.008.000) 01/31 11:28:44 Image size of job updated: 436092
	354  -  MemoryUsage of job (MB)
	361956  -  ResidentSetSize of job (KB)
...
006 (3447453.008.000) 01/31 11:33:45 Image size of job updated: 436140
	354  -  MemoryUsage of job (MB)
	362004  -  ResidentSetSize of job (KB)
...
006 (3447453.008.000) 01/31 11:38:46 Image size of job updated: 436244
	354  -  MemoryUsage of job (MB)
	362108  -  ResidentSetSize of job (KB)
...
006 (3447453.008.000) 01/31 11:43:46 Image size of job updated: 436340
	354  -  MemoryUsage of job (MB)
	362204  -  ResidentSetSize of job (KB)
...
006 (3447453.008.000) 01/31 11:48:47 Image size of job updated: 436340
	354  -  MemoryUsage of job (MB)
	362300  -  ResidentSetSize of job (KB)
...
006 (3447453.008.000) 01/31 11:53:48 Image size of job updated: 436340
	354  -  MemoryUsage of job (MB)
	362348  -  ResidentSetSize of job (KB)
...
006 (3447453.008.000) 01/31 11:58:48 Image size of job updated: 436340
	354  -  MemoryUsage of job (MB)
	362492  -  ResidentSetSize of job (KB)
...
006 (3447453.008.000) 01/31 12:03:48 Image size of job updated: 436340
	355  -  MemoryUsage of job (MB)
	362740  -  ResidentSetSize of job (KB)
...
006 (3447453.008.000) 01/31 12:28:52 Image size of job updated: 436340
	355  -  MemoryUsage of job (MB)
	362876  -  ResidentSetSize of job (KB)
...
006 (3447453.008.000) 01/31 12:33:52 Image size of job updated: 436340
	355  -  MemoryUsage of job (MB)
	362936  -  ResidentSetSize of job (KB)
...
006 (3447453.008.000) 01/31 12:38:52 Image size of job updated: 436340
	355  -  MemoryUsage of job (MB)
	362968  -  ResidentSetSize of job (KB)
...
006 (3447453.008.000) 01/31 12:43:53 Image size of job updated: 436340
	355  -  MemoryUsage of job (MB)
	363036  -  ResidentSetSize of job (KB)
...
006 (3447453.008.000) 01/31 12:48:53 Image size of job updated: 436340
	355  -  MemoryUsage of job (MB)
	363132  -  ResidentSetSize of job (KB)
...
006 (3447453.008.000) 01/31 12:53:53 Image size of job updated: 436340
	355  -  MemoryUsage of job (MB)
	363156  -  ResidentSetSize of job (KB)
...
006 (3447453.008.000) 01/31 12:58:54 Image size of job updated: 436340
	355  -  MemoryUsage of job (MB)
	363340  -  ResidentSetSize of job (KB)
...
006 (3447453.008.000) 01/31 13:03:55 Image size of job updated: 436340
	356  -  MemoryUsage of job (MB)
	363560  -  ResidentSetSize of job (KB)
...
006 (3447453.008.000) 01/31 13:18:57 Image size of job updated: 436340
	356  -  MemoryUsage of job (MB)
	363588  -  ResidentSetSize of job (KB)
...
006 (3447453.008.000) 01/31 13:23:57 Image size of job updated: 436340
	356  -  MemoryUsage of job (MB)
	363636  -  ResidentSetSize of job (KB)
...
006 (3447453.008.000) 01/31 13:28:59 Image size of job updated: 436340
	356  -  MemoryUsage of job (MB)
	363808  -  ResidentSetSize of job (KB)
...
006 (3447453.008.000) 01/31 13:33:59 Image size of job updated: 436340
	356  -  MemoryUsage of job (MB)
	363820  -  ResidentSetSize of job (KB)
...
006 (3447453.008.000) 01/31 13:38:59 Image size of job updated: 436340
	356  -  MemoryUsage of job (MB)
	363920  -  ResidentSetSize of job (KB)
...
006 (3447453.008.000) 01/31 13:44:00 Image size of job updated: 436340
	356  -  MemoryUsage of job (MB)
	363948  -  ResidentSetSize of job (KB)
...
006 (3447453.008.000) 01/31 13:49:01 Image size of job updated: 436340
	356  -  MemoryUsage of job (MB)
	363988  -  ResidentSetSize of job (KB)
...
006 (3447453.008.000) 01/31 13:54:01 Image size of job updated: 436340
	356  -  MemoryUsage of job (MB)
	364016  -  ResidentSetSize of job (KB)
...
006 (3447453.008.000) 01/31 13:59:02 Image size of job updated: 436340
	356  -  MemoryUsage of job (MB)
	364168  -  ResidentSetSize of job (KB)
...
006 (3447453.008.000) 01/31 14:04:03 Image size of job updated: 436340
	356  -  MemoryUsage of job (MB)
	364188  -  ResidentSetSize of job (KB)
...
006 (3447453.008.000) 01/31 14:09:03 Image size of job updated: 436340
	356  -  MemoryUsage of job (MB)
	364288  -  ResidentSetSize of job (KB)
...
006 (3447453.008.000) 01/31 14:14:04 Image size of job updated: 436340
	356  -  MemoryUsage of job (MB)
	364380  -  ResidentSetSize of job (KB)
...
006 (3447453.008.000) 01/31 14:19:05 Image size of job updated: 436340
	356  -  MemoryUsage of job (MB)
	364436  -  ResidentSetSize of job (KB)
...
006 (3447453.008.000) 01/31 14:24:05 Image size of job updated: 436340
	356  -  MemoryUsage of job (MB)
	364524  -  ResidentSetSize of job (KB)
...
006 (3447453.008.000) 01/31 14:29:06 Image size of job updated: 436340
	356  -  MemoryUsage of job (MB)
	364540  -  ResidentSetSize of job (KB)
...
006 (3447453.008.000) 01/31 14:34:07 Image size of job updated: 436340
	357  -  MemoryUsage of job (MB)
	364656  -  ResidentSetSize of job (KB)
...
006 (3447453.008.000) 01/31 14:39:07 Image size of job updated: 436340
	357  -  MemoryUsage of job (MB)
	364740  -  ResidentSetSize of job (KB)
...
006 (3447453.008.000) 01/31 14:44:07 Image size of job updated: 436340
	357  -  MemoryUsage of job (MB)
	364788  -  ResidentSetSize of job (KB)
...
006 (3447453.008.000) 01/31 14:49:08 Image size of job updated: 436340
	357  -  MemoryUsage of job (MB)
	364804  -  ResidentSetSize of job (KB)
...
006 (3447453.008.000) 01/31 14:54:08 Image size of job updated: 436340
	357  -  MemoryUsage of job (MB)
	364908  -  ResidentSetSize of job (KB)
...
006 (3447453.008.000) 01/31 14:59:08 Image size of job updated: 436340
	357  -  MemoryUsage of job (MB)
	365144  -  ResidentSetSize of job (KB)
...
006 (3447453.008.000) 01/31 15:04:09 Image size of job updated: 436340
	357  -  MemoryUsage of job (MB)
	365424  -  ResidentSetSize of job (KB)
...
006 (3447453.008.000) 01/31 15:29:10 Image size of job updated: 436340
	357  -  MemoryUsage of job (MB)
	365520  -  ResidentSetSize of job (KB)
...
006 (3447453.008.000) 01/31 15:34:12 Image size of job updated: 436340
	358  -  MemoryUsage of job (MB)
	365592  -  ResidentSetSize of job (KB)
...
006 (3447453.008.000) 01/31 15:39:12 Image size of job updated: 436340
	359  -  MemoryUsage of job (MB)
	366952  -  ResidentSetSize of job (KB)
...
006 (3447453.008.000) 01/31 15:44:12 Image size of job updated: 436340
	359  -  MemoryUsage of job (MB)
	367004  -  ResidentSetSize of job (KB)
...
006 (3447453.008.000) 01/31 15:49:13 Image size of job updated: 436340
	360  -  MemoryUsage of job (MB)
	368200  -  ResidentSetSize of job (KB)
...
006 (3447453.008.000) 01/31 15:54:14 Image size of job updated: 436340
	360  -  MemoryUsage of job (MB)
	368292  -  ResidentSetSize of job (KB)
...
006 (3447453.008.000) 01/31 15:59:14 Image size of job updated: 436340
	360  -  MemoryUsage of job (MB)
	368436  -  ResidentSetSize of job (KB)
...
006 (3447453.008.000) 01/31 16:04:15 Image size of job updated: 436340
	360  -  MemoryUsage of job (MB)
	368472  -  ResidentSetSize of job (KB)
...
006 (3447453.008.000) 01/31 16:09:16 Image size of job updated: 436340
	360  -  MemoryUsage of job (MB)
	368492  -  ResidentSetSize of job (KB)
...
006 (3447453.008.000) 01/31 16:14:16 Image size of job updated: 436340
	360  -  MemoryUsage of job (MB)
	368548  -  ResidentSetSize of job (KB)
...
006 (3447453.008.000) 01/31 16:19:16 Image size of job updated: 436340
	360  -  MemoryUsage of job (MB)
	368592  -  ResidentSetSize of job (KB)
...
006 (3447453.008.000) 01/31 16:24:17 Image size of job updated: 436340
	360  -  MemoryUsage of job (MB)
	368616  -  ResidentSetSize of job (KB)
...
006 (3447453.008.000) 01/31 16:29:17 Image size of job updated: 436340
	361  -  MemoryUsage of job (MB)
	368680  -  ResidentSetSize of job (KB)
...
006 (3447453.008.000) 01/31 16:34:17 Image size of job updated: 436340
	361  -  MemoryUsage of job (MB)
	368712  -  ResidentSetSize of job (KB)
...
006 (3447453.008.000) 01/31 16:39:18 Image size of job updated: 436340
	361  -  MemoryUsage of job (MB)
	368772  -  ResidentSetSize of job (KB)
...
006 (3447453.008.000) 01/31 16:44:18 Image size of job updated: 436340
	361  -  MemoryUsage of job (MB)
	368804  -  ResidentSetSize of job (KB)
...
006 (3447453.008.000) 01/31 16:49:18 Image size of job updated: 436340
	361  -  MemoryUsage of job (MB)
	368864  -  ResidentSetSize of job (KB)
...
006 (3447453.008.000) 01/31 16:54:19 Image size of job updated: 436340
	361  -  MemoryUsage of job (MB)
	368920  -  ResidentSetSize of job (KB)
...
006 (3447453.008.000) 01/31 16:59:19 Image size of job updated: 436340
	361  -  MemoryUsage of job (MB)
	368936  -  ResidentSetSize of job (KB)
...
006 (3447453.008.000) 01/31 17:04:19 Image size of job updated: 436340
	361  -  MemoryUsage of job (MB)
	368968  -  ResidentSetSize of job (KB)
...
006 (3447453.008.000) 01/31 17:09:20 Image size of job updated: 436340
	361  -  MemoryUsage of job (MB)
	368992  -  ResidentSetSize of job (KB)
...
006 (3447453.008.000) 01/31 17:14:20 Image size of job updated: 436340
	361  -  MemoryUsage of job (MB)
	369020  -  ResidentSetSize of job (KB)
...
006 (3447453.008.000) 01/31 17:23:34 Image size of job updated: 436340
	361  -  MemoryUsage of job (MB)
	369088  -  ResidentSetSize of job (KB)
...
006 (3447453.008.000) 01/31 17:36:14 Image size of job updated: 436340
	361  -  MemoryUsage of job (MB)
	369240  -  ResidentSetSize of job (KB)
...
006 (3447453.008.000) 01/31 17:46:23 Image size of job updated: 436340
	361  -  MemoryUsage of job (MB)
	369340  -  ResidentSetSize of job (KB)
...
006 (3447453.008.000) 01/31 17:52:28 Image size of job updated: 436340
	361  -  MemoryUsage of job (MB)
	369408  -  ResidentSetSize of job (KB)
...
006 (3447453.008.000) 01/31 17:57:29 Image size of job updated: 436340
	361  -  MemoryUsage of job (MB)
	369484  -  ResidentSetSize of job (KB)
...
006 (3447453.008.000) 01/31 18:02:29 Image size of job updated: 436340
	361  -  MemoryUsage of job (MB)
	369560  -  ResidentSetSize of job (KB)
...
006 (3447453.008.000) 01/31 18:07:29 Image size of job updated: 436340
	361  -  MemoryUsage of job (MB)
	369580  -  ResidentSetSize of job (KB)
...
006 (3447453.008.000) 01/31 18:12:30 Image size of job updated: 436340
	361  -  MemoryUsage of job (MB)
	369648  -  ResidentSetSize of job (KB)
...
006 (3447453.008.000) 01/31 18:17:30 Image size of job updated: 436340
	362  -  MemoryUsage of job (MB)
	369684  -  ResidentSetSize of job (KB)
...
006 (3447453.008.000) 01/31 18:22:30 Image size of job updated: 436340
	362  -  MemoryUsage of job (MB)
	369764  -  ResidentSetSize of job (KB)
...
006 (3447453.008.000) 01/31 18:27:31 Image size of job updated: 436340
	362  -  MemoryUsage of job (MB)
	369768  -  ResidentSetSize of job (KB)
...
006 (3447453.008.000) 01/31 18:32:32 Image size of job updated: 436340
	362  -  MemoryUsage of job (MB)
	369844  -  ResidentSetSize of job (KB)
...
006 (3447453.008.000) 01/31 18:42:33 Image size of job updated: 436340
	362  -  MemoryUsage of job (MB)
	369900  -  ResidentSetSize of job (KB)
...
006 (3447453.008.000) 01/31 18:47:34 Image size of job updated: 436340
	362  -  MemoryUsage of job (MB)
	370040  -  ResidentSetSize of job (KB)
...
006 (3447453.008.000) 01/31 18:52:34 Image size of job updated: 436340
	362  -  MemoryUsage of job (MB)
	370072  -  ResidentSetSize of job (KB)
...
006 (3447453.008.000) 01/31 18:57:35 Image size of job updated: 436340
	362  -  MemoryUsage of job (MB)
	370104  -  ResidentSetSize of job (KB)
...
006 (3447453.008.000) 01/31 19:37:39 Image size of job updated: 436340
	362  -  MemoryUsage of job (MB)
	370116  -  ResidentSetSize of job (KB)
...
006 (3447453.008.000) 01/31 19:42:40 Image size of job updated: 436340
	362  -  MemoryUsage of job (MB)
	370188  -  ResidentSetSize of job (KB)
...
006 (3447453.008.000) 01/31 19:47:41 Image size of job updated: 436340
	362  -  MemoryUsage of job (MB)
	370220  -  ResidentSetSize of job (KB)
...
006 (3447453.008.000) 01/31 19:52:41 Image size of job updated: 436340
	362  -  MemoryUsage of job (MB)
	370292  -  ResidentSetSize of job (KB)
...
006 (3447453.008.000) 01/31 20:02:43 Image size of job updated: 436340
	362  -  MemoryUsage of job (MB)
	370416  -  ResidentSetSize of job (KB)
...
006 (3447453.008.000) 01/31 20:07:43 Image size of job updated: 436340
	362  -  MemoryUsage of job (MB)
	370448  -  ResidentSetSize of job (KB)
...
006 (3447453.008.000) 01/31 20:12:43 Image size of job updated: 436340
	362  -  MemoryUsage of job (MB)
	370552  -  ResidentSetSize of job (KB)
...
006 (3447453.008.000) 01/31 20:17:44 Image size of job updated: 436340
	362  -  MemoryUsage of job (MB)
	370588  -  ResidentSetSize of job (KB)
...
006 (3447453.008.000) 01/31 20:22:44 Image size of job updated: 436340
	362  -  MemoryUsage of job (MB)
	370676  -  ResidentSetSize of job (KB)
...
006 (3447453.008.000) 01/31 20:27:44 Image size of job updated: 436340
	362  -  MemoryUsage of job (MB)
	370680  -  ResidentSetSize of job (KB)
...
006 (3447453.008.000) 01/31 20:32:45 Image size of job updated: 436340
	363  -  MemoryUsage of job (MB)
	370752  -  ResidentSetSize of job (KB)
...
006 (3447453.008.000) 01/31 20:42:46 Image size of job updated: 436340
	363  -  MemoryUsage of job (MB)
	370872  -  ResidentSetSize of job (KB)
...
006 (3447453.008.000) 01/31 20:52:48 Image size of job updated: 436340
	363  -  MemoryUsage of job (MB)
	370984  -  ResidentSetSize of job (KB)
...
006 (3447453.008.000) 01/31 20:57:48 Image size of job updated: 436340
	363  -  MemoryUsage of job (MB)
	371008  -  ResidentSetSize of job (KB)
...
006 (3447453.008.000) 01/31 21:02:49 Image size of job updated: 436340
	363  -  MemoryUsage of job (MB)
	371076  -  ResidentSetSize of job (KB)
...
006 (3447453.008.000) 01/31 21:12:50 Image size of job updated: 436340
	363  -  MemoryUsage of job (MB)
	371172  -  ResidentSetSize of job (KB)
...
006 (3447453.008.000) 01/31 21:17:50 Image size of job updated: 436340
	363  -  MemoryUsage of job (MB)
	371220  -  ResidentSetSize of job (KB)
...
006 (3447453.008.000) 01/31 21:22:51 Image size of job updated: 436340
	363  -  MemoryUsage of job (MB)
	371248  -  ResidentSetSize of job (KB)
...
006 (3447453.008.000) 01/31 21:27:52 Image size of job updated: 436340
	363  -  MemoryUsage of job (MB)
	371304  -  ResidentSetSize of job (KB)
...
006 (3447453.008.000) 01/31 21:32:52 Image size of job updated: 436340
	363  -  MemoryUsage of job (MB)
	371308  -  ResidentSetSize of job (KB)
...
006 (3447453.008.000) 01/31 21:37:53 Image size of job updated: 436340
	363  -  MemoryUsage of job (MB)
	371348  -  ResidentSetSize of job (KB)
...
006 (3447453.008.000) 01/31 21:42:54 Image size of job updated: 436340
	363  -  MemoryUsage of job (MB)
	371436  -  ResidentSetSize of job (KB)
...
006 (3447453.008.000) 01/31 21:52:54 Image size of job updated: 436340
	363  -  MemoryUsage of job (MB)
	371504  -  ResidentSetSize of job (KB)
...
006 (3447453.008.000) 01/31 22:02:56 Image size of job updated: 436340
	363  -  MemoryUsage of job (MB)
	371584  -  ResidentSetSize of job (KB)
...
006 (3447453.008.000) 01/31 22:07:56 Image size of job updated: 436340
	364  -  MemoryUsage of job (MB)
	371720  -  ResidentSetSize of job (KB)
...
006 (3447453.008.000) 01/31 22:14:05 Image size of job updated: 436340
	364  -  MemoryUsage of job (MB)
	371760  -  ResidentSetSize of job (KB)
...
006 (3447453.008.000) 01/31 22:17:57 Image size of job updated: 436340
	364  -  MemoryUsage of job (MB)
	371832  -  ResidentSetSize of job (KB)
...
006 (3447453.008.000) 01/31 22:22:58 Image size of job updated: 436340
	364  -  MemoryUsage of job (MB)
	371856  -  ResidentSetSize of job (KB)
...
006 (3447453.008.000) 01/31 22:27:58 Image size of job updated: 436340
	364  -  MemoryUsage of job (MB)
	371920  -  ResidentSetSize of job (KB)
...
006 (3447453.008.000) 01/31 22:32:58 Image size of job updated: 436340
	364  -  MemoryUsage of job (MB)
	371976  -  ResidentSetSize of job (KB)
...
006 (3447453.008.000) 01/31 22:37:59 Image size of job updated: 436340
	364  -  MemoryUsage of job (MB)
	372096  -  ResidentSetSize of job (KB)
...
006 (3447453.008.000) 01/31 22:43:00 Image size of job updated: 436340
	364  -  MemoryUsage of job (MB)
	372196  -  ResidentSetSize of job (KB)
...
006 (3447453.008.000) 01/31 22:48:00 Image size of job updated: 436340
	364  -  MemoryUsage of job (MB)
	372444  -  ResidentSetSize of job (KB)
...
006 (3447453.008.000) 01/31 22:53:01 Image size of job updated: 436340
	364  -  MemoryUsage of job (MB)
	372464  -  ResidentSetSize of job (KB)
...
006 (3447453.008.000) 01/31 23:53:08 Image size of job updated: 436340
	364  -  MemoryUsage of job (MB)
	372468  -  ResidentSetSize of job (KB)
...
006 (3447453.008.000) 01/31 23:58:08 Image size of job updated: 436340
	364  -  MemoryUsage of job (MB)
	372504  -  ResidentSetSize of job (KB)
...
006 (3447453.008.000) 02/01 00:03:08 Image size of job updated: 436340
	364  -  MemoryUsage of job (MB)
	372536  -  ResidentSetSize of job (KB)
...
006 (3447453.008.000) 02/01 00:13:09 Image size of job updated: 436340
	364  -  MemoryUsage of job (MB)
	372612  -  ResidentSetSize of job (KB)
...
006 (3447453.008.000) 02/01 00:23:10 Image size of job updated: 436340
	364  -  MemoryUsage of job (MB)
	372708  -  ResidentSetSize of job (KB)
...
006 (3447453.008.000) 02/01 00:28:11 Image size of job updated: 436340
	364  -  MemoryUsage of job (MB)
	372720  -  ResidentSetSize of job (KB)
...
006 (3447453.008.000) 02/01 00:38:12 Image size of job updated: 436340
	364  -  MemoryUsage of job (MB)
	372732  -  ResidentSetSize of job (KB)
...
006 (3447453.008.000) 02/01 00:43:13 Image size of job updated: 436340
	365  -  MemoryUsage of job (MB)
	372748  -  ResidentSetSize of job (KB)
...
006 (3447453.008.000) 02/01 01:33:18 Image size of job updated: 436340
	365  -  MemoryUsage of job (MB)
	372760  -  ResidentSetSize of job (KB)
...
006 (3447453.008.000) 02/01 01:48:20 Image size of job updated: 436340
	365  -  MemoryUsage of job (MB)
	372768  -  ResidentSetSize of job (KB)
...
006 (3447453.008.000) 02/01 01:53:21 Image size of job updated: 436340
	365  -  MemoryUsage of job (MB)
	372780  -  ResidentSetSize of job (KB)
...
006 (3447453.008.000) 02/01 02:13:23 Image size of job updated: 436340
	365  -  MemoryUsage of job (MB)
	372796  -  ResidentSetSize of job (KB)
...
006 (3447453.008.000) 02/01 02:23:25 Image size of job updated: 436340
	365  -  MemoryUsage of job (MB)
	372820  -  ResidentSetSize of job (KB)
...
006 (3447453.008.000) 02/01 02:28:25 Image size of job updated: 436340
	365  -  MemoryUsage of job (MB)
	372828  -  ResidentSetSize of job (KB)
...
006 (3447453.008.000) 02/01 02:38:26 Image size of job updated: 436340
	365  -  MemoryUsage of job (MB)
	372840  -  ResidentSetSize of job (KB)
...
006 (3447453.008.000) 02/01 02:48:26 Image size of job updated: 436340
	365  -  MemoryUsage of job (MB)
	372848  -  ResidentSetSize of job (KB)
...
006 (3447453.008.000) 02/01 02:53:27 Image size of job updated: 436340
	365  -  MemoryUsage of job (MB)
	372868  -  ResidentSetSize of job (KB)
...
006 (3447453.008.000) 02/01 03:03:27 Image size of job updated: 436340
	365  -  MemoryUsage of job (MB)
	372876  -  ResidentSetSize of job (KB)
...
006 (3447453.008.000) 02/01 03:28:29 Image size of job updated: 436340
	365  -  MemoryUsage of job (MB)
	372896  -  ResidentSetSize of job (KB)
...
006 (3447453.008.000) 02/01 03:38:30 Image size of job updated: 436340
	365  -  MemoryUsage of job (MB)
	372912  -  ResidentSetSize of job (KB)
...
006 (3447453.008.000) 02/01 03:48:30 Image size of job updated: 436340
	365  -  MemoryUsage of job (MB)
	372940  -  ResidentSetSize of job (KB)
...
006 (3447453.008.000) 02/01 04:03:31 Image size of job updated: 436340
	365  -  MemoryUsage of job (MB)
	372960  -  ResidentSetSize of job (KB)
...
006 (3447453.008.000) 02/01 04:13:32 Image size of job updated: 436340
	365  -  MemoryUsage of job (MB)
	373012  -  ResidentSetSize of job (KB)
...
006 (3447453.008.000) 02/01 04:23:33 Image size of job updated: 436340
	365  -  MemoryUsage of job (MB)
	373028  -  ResidentSetSize of job (KB)
...
006 (3447453.008.000) 02/01 04:33:34 Image size of job updated: 436340
	365  -  MemoryUsage of job (MB)
	373044  -  ResidentSetSize of job (KB)
...
006 (3447453.008.000) 02/01 04:43:35 Image size of job updated: 436340
	365  -  MemoryUsage of job (MB)
	373076  -  ResidentSetSize of job (KB)
...
006 (3447453.008.000) 02/01 04:53:36 Image size of job updated: 436340
	365  -  MemoryUsage of job (MB)
	373104  -  ResidentSetSize of job (KB)
...
006 (3447453.008.000) 02/01 05:03:38 Image size of job updated: 436340
	365  -  MemoryUsage of job (MB)
	373108  -  ResidentSetSize of job (KB)
...
006 (3447453.008.000) 02/01 06:08:43 Image size of job updated: 436340
	365  -  MemoryUsage of job (MB)
	373120  -  ResidentSetSize of job (KB)
...
006 (3447453.008.000) 02/01 06:18:45 Image size of job updated: 436340
	365  -  MemoryUsage of job (MB)
	373132  -  ResidentSetSize of job (KB)
...
006 (3447453.008.000) 02/01 06:23:45 Image size of job updated: 436340
	365  -  MemoryUsage of job (MB)
	373156  -  ResidentSetSize of job (KB)
...
006 (3447453.008.000) 02/01 06:28:45 Image size of job updated: 436340
	365  -  MemoryUsage of job (MB)
	373196  -  ResidentSetSize of job (KB)
...
006 (3447453.008.000) 02/01 06:38:47 Image size of job updated: 436340
	365  -  MemoryUsage of job (MB)
	373204  -  ResidentSetSize of job (KB)
...
006 (3447453.008.000) 02/01 06:43:47 Image size of job updated: 436340
	365  -  MemoryUsage of job (MB)
	373208  -  ResidentSetSize of job (KB)
...
006 (3447453.008.000) 02/01 06:48:48 Image size of job updated: 436340
	365  -  MemoryUsage of job (MB)
	373220  -  ResidentSetSize of job (KB)
...
006 (3447453.008.000) 02/01 06:53:49 Image size of job updated: 436340
	365  -  MemoryUsage of job (MB)
	373232  -  ResidentSetSize of job (KB)
...
006 (3447453.008.000) 02/01 07:08:51 Image size of job updated: 436340
	365  -  MemoryUsage of job (MB)
	373296  -  ResidentSetSize of job (KB)
...
006 (3447453.008.000) 02/01 07:18:52 Image size of job updated: 436340
	365  -  MemoryUsage of job (MB)
	373308  -  ResidentSetSize of job (KB)
...
006 (3447453.008.000) 02/01 07:23:53 Image size of job updated: 436340
	365  -  MemoryUsage of job (MB)
	373316  -  ResidentSetSize of job (KB)
...
006 (3447453.008.000) 02/01 07:28:53 Image size of job updated: 436340
	365  -  MemoryUsage of job (MB)
	373340  -  ResidentSetSize of job (KB)
...
006 (3447453.008.000) 02/01 07:38:55 Image size of job updated: 436340
	365  -  MemoryUsage of job (MB)
	373344  -  ResidentSetSize of job (KB)
...
006 (3447453.008.000) 02/01 07:53:57 Image size of job updated: 436340
	365  -  MemoryUsage of job (MB)
	373348  -  ResidentSetSize of job (KB)
...
006 (3447453.008.000) 02/01 07:58:57 Image size of job updated: 436340
	365  -  MemoryUsage of job (MB)
	373384  -  ResidentSetSize of job (KB)
...
006 (3447453.008.000) 02/01 08:13:59 Image size of job updated: 436340
	365  -  MemoryUsage of job (MB)
	373400  -  ResidentSetSize of job (KB)
...
006 (3447453.008.000) 02/01 08:24:00 Image size of job updated: 436340
	365  -  MemoryUsage of job (MB)
	373412  -  ResidentSetSize of job (KB)
...
006 (3447453.008.000) 02/01 08:39:01 Image size of job updated: 436340
	365  -  MemoryUsage of job (MB)
	373528  -  ResidentSetSize of job (KB)
...
006 (3447453.008.000) 02/01 08:59:03 Image size of job updated: 436340
	365  -  MemoryUsage of job (MB)
	373588  -  ResidentSetSize of job (KB)
...
006 (3447453.008.000) 02/01 09:14:05 Image size of job updated: 436340
	365  -  MemoryUsage of job (MB)
	373600  -  ResidentSetSize of job (KB)
...
006 (3447453.008.000) 02/01 09:19:05 Image size of job updated: 436340
	365  -  MemoryUsage of job (MB)
	373684  -  ResidentSetSize of job (KB)
...
006 (3447453.008.000) 02/01 09:29:07 Image size of job updated: 436340
	365  -  MemoryUsage of job (MB)
	373712  -  ResidentSetSize of job (KB)
...
006 (3447453.008.000) 02/01 09:54:10 Image size of job updated: 436340
	366  -  MemoryUsage of job (MB)
	373856  -  ResidentSetSize of job (KB)
...
006 (3447453.008.000) 02/01 10:04:11 Image size of job updated: 436340
	366  -  MemoryUsage of job (MB)
	373884  -  ResidentSetSize of job (KB)
...
006 (3447453.008.000) 02/01 10:09:11 Image size of job updated: 436340
	366  -  MemoryUsage of job (MB)
	373920  -  ResidentSetSize of job (KB)
...
006 (3447453.008.000) 02/01 10:14:12 Image size of job updated: 436340
	366  -  MemoryUsage of job (MB)
	373940  -  ResidentSetSize of job (KB)
...
006 (3447453.008.000) 02/01 10:29:13 Image size of job updated: 436340
	366  -  MemoryUsage of job (MB)
	373992  -  ResidentSetSize of job (KB)
...
006 (3447453.008.000) 02/01 10:34:13 Image size of job updated: 436340
	366  -  MemoryUsage of job (MB)
	374048  -  ResidentSetSize of job (KB)
...
040 (3447453.008.000) 02/01 19:58:40 Started transferring input files
	Transferring to host: <128.142.70.71:9618?addrs=128.142.70.71-9618+[2001-1458-301-52--100-4c9]-9618&noUDP&sock=14482_a106_12903>
...
040 (3447453.008.000) 02/01 19:58:40 Finished transferring input files
...
001 (3447453.008.000) 02/01 19:58:41 Job executing on host: <128.142.70.71:9618?addrs=128.142.70.71-9618+[2001-1458-301-52--100-4c9]-9618&noUDP&sock=14277_69b8_3>
...
040 (3447453.008.000) 02/01 19:59:08 Started transferring output files
...
040 (3447453.008.000) 02/01 19:59:08 Finished transferring output files
...
005 (3447453.008.000) 02/01 19:59:08 Job terminated.
	(1) Normal termination (return value 0)
		Usr 0 00:00:05, Sys 0 00:00:05  -  Run Remote Usage
		Usr 0 00:00:00, Sys 0 00:00:00  -  Run Local Usage
		Usr 0 00:00:05, Sys 0 00:00:05  -  Total Remote Usage
		Usr 0 00:00:00, Sys 0 00:00:00  -  Total Local Usage
	9715  -  Run Bytes Sent By Job
	493  -  Run Bytes Received By Job
	9715  -  Total Bytes Sent By Job
	986  -  Total Bytes Received By Job
	Partitionable Resources :    Usage  Request Allocated 
	   Cpus                 :                 1           
	   Disk (KB)            :       24       35   2799624 
	   Memory (MB)          :      367     2000      2000 
...
