000 (3447424.013.000) 01/30 01:49:27 Job submitted from host: <188.185.71.142:9618?addrs=188.185.71.142-9618+[2001-1458-d00-7--100-388]-9618&alias=bigbird09.cern.ch&noUDP&sock=schedd_2208_1533_7>
...
040 (3447424.013.000) 01/30 07:16:49 Started transferring input files
	Transferring to host: <188.184.138.67:9618?addrs=188.184.138.67-9618+[2001-1458-301-45--100-56]-9618&noUDP&sock=31058_eba8_199055>
...
040 (3447424.013.000) 01/30 07:16:49 Finished transferring input files
...
001 (3447424.013.000) 01/30 07:16:50 Job executing on host: <188.184.138.67:9618?addrs=188.184.138.67-9618+[2001-1458-301-45--100-56]-9618&noUDP&sock=5609_e2cc_3>
...
006 (3447424.013.000) 01/30 07:16:58 Image size of job updated: 4632
	4  -  MemoryUsage of job (MB)
	4028  -  ResidentSetSize of job (KB)
...
006 (3447424.013.000) 01/30 07:21:58 Image size of job updated: 434804
	401  -  MemoryUsage of job (MB)
	410324  -  ResidentSetSize of job (KB)
...
006 (3447424.013.000) 01/30 07:26:59 Image size of job updated: 434840
	401  -  MemoryUsage of job (MB)
	410360  -  ResidentSetSize of job (KB)
...
006 (3447424.013.000) 01/30 07:31:59 Image size of job updated: 434852
	401  -  MemoryUsage of job (MB)
	410372  -  ResidentSetSize of job (KB)
...
006 (3447424.013.000) 01/30 07:36:59 Image size of job updated: 434864
	401  -  MemoryUsage of job (MB)
	410384  -  ResidentSetSize of job (KB)
...
006 (3447424.013.000) 01/30 07:42:00 Image size of job updated: 434888
	401  -  MemoryUsage of job (MB)
	410408  -  ResidentSetSize of job (KB)
...
006 (3447424.013.000) 01/30 07:47:00 Image size of job updated: 434904
	401  -  MemoryUsage of job (MB)
	410424  -  ResidentSetSize of job (KB)
...
006 (3447424.013.000) 01/30 07:52:00 Image size of job updated: 434912
	401  -  MemoryUsage of job (MB)
	410432  -  ResidentSetSize of job (KB)
...
006 (3447424.013.000) 01/30 07:57:01 Image size of job updated: 434920
	401  -  MemoryUsage of job (MB)
	410440  -  ResidentSetSize of job (KB)
...
006 (3447424.013.000) 01/30 08:02:01 Image size of job updated: 434932
	401  -  MemoryUsage of job (MB)
	410452  -  ResidentSetSize of job (KB)
...
006 (3447424.013.000) 01/30 08:12:02 Image size of job updated: 434944
	401  -  MemoryUsage of job (MB)
	410464  -  ResidentSetSize of job (KB)
...
006 (3447424.013.000) 01/30 08:17:03 Image size of job updated: 434948
	401  -  MemoryUsage of job (MB)
	410468  -  ResidentSetSize of job (KB)
...
006 (3447424.013.000) 01/30 08:22:03 Image size of job updated: 434956
	401  -  MemoryUsage of job (MB)
	410476  -  ResidentSetSize of job (KB)
...
006 (3447424.013.000) 01/30 08:27:04 Image size of job updated: 434956
	401  -  MemoryUsage of job (MB)
	410496  -  ResidentSetSize of job (KB)
...
006 (3447424.013.000) 01/30 08:32:05 Image size of job updated: 434956
	401  -  MemoryUsage of job (MB)
	410516  -  ResidentSetSize of job (KB)
...
006 (3447424.013.000) 01/30 08:37:05 Image size of job updated: 434956
	401  -  MemoryUsage of job (MB)
	410520  -  ResidentSetSize of job (KB)
...
006 (3447424.013.000) 01/30 08:42:06 Image size of job updated: 434956
	401  -  MemoryUsage of job (MB)
	410556  -  ResidentSetSize of job (KB)
...
006 (3447424.013.000) 01/30 15:17:50 Image size of job updated: 434956
	401  -  MemoryUsage of job (MB)
	410568  -  ResidentSetSize of job (KB)
...
006 (3447424.013.000) 01/30 15:22:50 Image size of job updated: 434956
	401  -  MemoryUsage of job (MB)
	410588  -  ResidentSetSize of job (KB)
...
006 (3447424.013.000) 01/30 15:27:51 Image size of job updated: 434956
	401  -  MemoryUsage of job (MB)
	410624  -  ResidentSetSize of job (KB)
...
006 (3447424.013.000) 01/30 15:32:51 Image size of job updated: 434956
	402  -  MemoryUsage of job (MB)
	410672  -  ResidentSetSize of job (KB)
...
006 (3447424.013.000) 01/30 15:37:53 Image size of job updated: 434956
	402  -  MemoryUsage of job (MB)
	410728  -  ResidentSetSize of job (KB)
...
006 (3447424.013.000) 01/30 15:42:53 Image size of job updated: 434956
	402  -  MemoryUsage of job (MB)
	410856  -  ResidentSetSize of job (KB)
...
006 (3447424.013.000) 01/30 15:47:53 Image size of job updated: 434956
	402  -  MemoryUsage of job (MB)
	410920  -  ResidentSetSize of job (KB)
...
006 (3447424.013.000) 01/30 15:52:54 Image size of job updated: 434956
	402  -  MemoryUsage of job (MB)
	410960  -  ResidentSetSize of job (KB)
...
006 (3447424.013.000) 01/30 16:12:57 Image size of job updated: 434956
	402  -  MemoryUsage of job (MB)
	411132  -  ResidentSetSize of job (KB)
...
006 (3447424.013.000) 01/30 17:48:05 Image size of job updated: 434956
	402  -  MemoryUsage of job (MB)
	411152  -  ResidentSetSize of job (KB)
...
006 (3447424.013.000) 01/30 17:58:07 Image size of job updated: 434956
	402  -  MemoryUsage of job (MB)
	411248  -  ResidentSetSize of job (KB)
...
006 (3447424.013.000) 01/30 18:03:07 Image size of job updated: 434956
	402  -  MemoryUsage of job (MB)
	411264  -  ResidentSetSize of job (KB)
...
006 (3447424.013.000) 01/30 18:08:07 Image size of job updated: 434956
	402  -  MemoryUsage of job (MB)
	411284  -  ResidentSetSize of job (KB)
...
006 (3447424.013.000) 01/30 18:13:08 Image size of job updated: 434956
	402  -  MemoryUsage of job (MB)
	411296  -  ResidentSetSize of job (KB)
...
006 (3447424.013.000) 01/30 18:18:09 Image size of job updated: 434956
	402  -  MemoryUsage of job (MB)
	411352  -  ResidentSetSize of job (KB)
...
006 (3447424.013.000) 01/30 18:28:10 Image size of job updated: 434956
	402  -  MemoryUsage of job (MB)
	411356  -  ResidentSetSize of job (KB)
...
006 (3447424.013.000) 01/30 18:38:11 Image size of job updated: 434956
	402  -  MemoryUsage of job (MB)
	411516  -  ResidentSetSize of job (KB)
...
006 (3447424.013.000) 01/30 18:43:12 Image size of job updated: 434956
	402  -  MemoryUsage of job (MB)
	411596  -  ResidentSetSize of job (KB)
...
006 (3447424.013.000) 01/30 18:48:13 Image size of job updated: 434956
	403  -  MemoryUsage of job (MB)
	411812  -  ResidentSetSize of job (KB)
...
006 (3447424.013.000) 01/30 18:53:13 Image size of job updated: 434956
	403  -  MemoryUsage of job (MB)
	412076  -  ResidentSetSize of job (KB)
...
006 (3447424.013.000) 01/30 18:58:13 Image size of job updated: 434956
	403  -  MemoryUsage of job (MB)
	412124  -  ResidentSetSize of job (KB)
...
006 (3447424.013.000) 01/30 19:03:14 Image size of job updated: 434956
	403  -  MemoryUsage of job (MB)
	412224  -  ResidentSetSize of job (KB)
...
006 (3447424.013.000) 01/30 20:48:23 Image size of job updated: 434956
	403  -  MemoryUsage of job (MB)
	412276  -  ResidentSetSize of job (KB)
...
006 (3447424.013.000) 01/30 20:58:24 Image size of job updated: 434956
	403  -  MemoryUsage of job (MB)
	412288  -  ResidentSetSize of job (KB)
...
006 (3447424.013.000) 01/30 21:03:24 Image size of job updated: 434956
	403  -  MemoryUsage of job (MB)
	412304  -  ResidentSetSize of job (KB)
...
006 (3447424.013.000) 01/30 21:08:25 Image size of job updated: 434956
	403  -  MemoryUsage of job (MB)
	412340  -  ResidentSetSize of job (KB)
...
006 (3447424.013.000) 01/30 21:13:25 Image size of job updated: 434956
	403  -  MemoryUsage of job (MB)
	412348  -  ResidentSetSize of job (KB)
...
006 (3447424.013.000) 01/30 21:18:26 Image size of job updated: 434956
	403  -  MemoryUsage of job (MB)
	412440  -  ResidentSetSize of job (KB)
...
006 (3447424.013.000) 01/30 21:23:26 Image size of job updated: 434956
	403  -  MemoryUsage of job (MB)
	412468  -  ResidentSetSize of job (KB)
...
006 (3447424.013.000) 01/30 21:28:27 Image size of job updated: 434956
	403  -  MemoryUsage of job (MB)
	412488  -  ResidentSetSize of job (KB)
...
006 (3447424.013.000) 01/30 21:33:27 Image size of job updated: 434956
	403  -  MemoryUsage of job (MB)
	412500  -  ResidentSetSize of job (KB)
...
006 (3447424.013.000) 01/30 21:38:27 Image size of job updated: 434956
	403  -  MemoryUsage of job (MB)
	412504  -  ResidentSetSize of job (KB)
...
006 (3447424.013.000) 01/30 21:43:28 Image size of job updated: 434956
	403  -  MemoryUsage of job (MB)
	412528  -  ResidentSetSize of job (KB)
...
006 (3447424.013.000) 01/30 21:48:28 Image size of job updated: 434956
	403  -  MemoryUsage of job (MB)
	412556  -  ResidentSetSize of job (KB)
...
006 (3447424.013.000) 01/30 21:53:28 Image size of job updated: 434956
	403  -  MemoryUsage of job (MB)
	412600  -  ResidentSetSize of job (KB)
...
006 (3447424.013.000) 01/30 22:03:29 Image size of job updated: 434956
	403  -  MemoryUsage of job (MB)
	412660  -  ResidentSetSize of job (KB)
...
006 (3447424.013.000) 01/30 22:13:30 Image size of job updated: 434956
	404  -  MemoryUsage of job (MB)
	412696  -  ResidentSetSize of job (KB)
...
006 (3447424.013.000) 01/30 22:18:31 Image size of job updated: 434956
	404  -  MemoryUsage of job (MB)
	412740  -  ResidentSetSize of job (KB)
...
006 (3447424.013.000) 01/30 22:33:33 Image size of job updated: 434956
	404  -  MemoryUsage of job (MB)
	412840  -  ResidentSetSize of job (KB)
...
006 (3447424.013.000) 01/30 22:43:34 Image size of job updated: 434956
	404  -  MemoryUsage of job (MB)
	412912  -  ResidentSetSize of job (KB)
...
006 (3447424.013.000) 01/30 22:48:35 Image size of job updated: 434956
	404  -  MemoryUsage of job (MB)
	412940  -  ResidentSetSize of job (KB)
...
006 (3447424.013.000) 01/30 22:53:35 Image size of job updated: 434956
	404  -  MemoryUsage of job (MB)
	412972  -  ResidentSetSize of job (KB)
...
006 (3447424.013.000) 01/30 23:03:37 Image size of job updated: 434956
	404  -  MemoryUsage of job (MB)
	413028  -  ResidentSetSize of job (KB)
...
006 (3447424.013.000) 01/30 23:08:37 Image size of job updated: 434956
	404  -  MemoryUsage of job (MB)
	413068  -  ResidentSetSize of job (KB)
...
006 (3447424.013.000) 01/30 23:13:38 Image size of job updated: 434956
	404  -  MemoryUsage of job (MB)
	413104  -  ResidentSetSize of job (KB)
...
006 (3447424.013.000) 01/30 23:18:39 Image size of job updated: 434956
	404  -  MemoryUsage of job (MB)
	413136  -  ResidentSetSize of job (KB)
...
006 (3447424.013.000) 01/30 23:23:39 Image size of job updated: 434956
	404  -  MemoryUsage of job (MB)
	413176  -  ResidentSetSize of job (KB)
...
006 (3447424.013.000) 01/30 23:28:39 Image size of job updated: 434956
	404  -  MemoryUsage of job (MB)
	413248  -  ResidentSetSize of job (KB)
...
006 (3447424.013.000) 01/30 23:33:40 Image size of job updated: 434956
	404  -  MemoryUsage of job (MB)
	413396  -  ResidentSetSize of job (KB)
...
006 (3447424.013.000) 01/30 23:38:40 Image size of job updated: 434956
	404  -  MemoryUsage of job (MB)
	413424  -  ResidentSetSize of job (KB)
...
006 (3447424.013.000) 01/30 23:48:41 Image size of job updated: 434956
	404  -  MemoryUsage of job (MB)
	413436  -  ResidentSetSize of job (KB)
...
006 (3447424.013.000) 01/30 23:53:41 Image size of job updated: 434956
	404  -  MemoryUsage of job (MB)
	413464  -  ResidentSetSize of job (KB)
...
006 (3447424.013.000) 01/30 23:58:41 Image size of job updated: 434956
	404  -  MemoryUsage of job (MB)
	413560  -  ResidentSetSize of job (KB)
...
006 (3447424.013.000) 01/31 01:03:48 Image size of job updated: 434956
	404  -  MemoryUsage of job (MB)
	413588  -  ResidentSetSize of job (KB)
...
006 (3447424.013.000) 01/31 01:08:50 Image size of job updated: 434956
	404  -  MemoryUsage of job (MB)
	413636  -  ResidentSetSize of job (KB)
...
006 (3447424.013.000) 01/31 01:13:50 Image size of job updated: 434956
	404  -  MemoryUsage of job (MB)
	413656  -  ResidentSetSize of job (KB)
...
006 (3447424.013.000) 01/31 01:18:51 Image size of job updated: 434956
	405  -  MemoryUsage of job (MB)
	413888  -  ResidentSetSize of job (KB)
...
006 (3447424.013.000) 01/31 01:23:52 Image size of job updated: 434956
	405  -  MemoryUsage of job (MB)
	413912  -  ResidentSetSize of job (KB)
...
006 (3447424.013.000) 01/31 02:44:01 Image size of job updated: 434956
	405  -  MemoryUsage of job (MB)
	413924  -  ResidentSetSize of job (KB)
...
006 (3447424.013.000) 01/31 02:49:01 Image size of job updated: 434956
	405  -  MemoryUsage of job (MB)
	414008  -  ResidentSetSize of job (KB)
...
006 (3447424.013.000) 01/31 02:54:01 Image size of job updated: 434956
	405  -  MemoryUsage of job (MB)
	414032  -  ResidentSetSize of job (KB)
...
006 (3447424.013.000) 01/31 02:59:02 Image size of job updated: 434956
	405  -  MemoryUsage of job (MB)
	414068  -  ResidentSetSize of job (KB)
...
006 (3447424.013.000) 01/31 03:04:03 Image size of job updated: 434956
	405  -  MemoryUsage of job (MB)
	414076  -  ResidentSetSize of job (KB)
...
006 (3447424.013.000) 01/31 03:09:03 Image size of job updated: 434956
	405  -  MemoryUsage of job (MB)
	414156  -  ResidentSetSize of job (KB)
...
006 (3447424.013.000) 01/31 03:14:03 Image size of job updated: 434956
	405  -  MemoryUsage of job (MB)
	414216  -  ResidentSetSize of job (KB)
...
006 (3447424.013.000) 01/31 03:19:04 Image size of job updated: 434956
	405  -  MemoryUsage of job (MB)
	414232  -  ResidentSetSize of job (KB)
...
006 (3447424.013.000) 01/31 03:24:05 Image size of job updated: 434956
	405  -  MemoryUsage of job (MB)
	414272  -  ResidentSetSize of job (KB)
...
006 (3447424.013.000) 01/31 03:29:05 Image size of job updated: 434956
	405  -  MemoryUsage of job (MB)
	414336  -  ResidentSetSize of job (KB)
...
006 (3447424.013.000) 01/31 03:34:05 Image size of job updated: 434956
	405  -  MemoryUsage of job (MB)
	414340  -  ResidentSetSize of job (KB)
...
006 (3447424.013.000) 01/31 03:39:07 Image size of job updated: 434956
	405  -  MemoryUsage of job (MB)
	414372  -  ResidentSetSize of job (KB)
...
006 (3447424.013.000) 01/31 03:44:07 Image size of job updated: 434956
	405  -  MemoryUsage of job (MB)
	414404  -  ResidentSetSize of job (KB)
...
006 (3447424.013.000) 01/31 03:54:08 Image size of job updated: 434956
	405  -  MemoryUsage of job (MB)
	414492  -  ResidentSetSize of job (KB)
...
006 (3447424.013.000) 01/31 03:59:09 Image size of job updated: 434956
	405  -  MemoryUsage of job (MB)
	414552  -  ResidentSetSize of job (KB)
...
006 (3447424.013.000) 01/31 04:04:09 Image size of job updated: 434956
	405  -  MemoryUsage of job (MB)
	414576  -  ResidentSetSize of job (KB)
...
006 (3447424.013.000) 01/31 04:09:09 Image size of job updated: 434956
	405  -  MemoryUsage of job (MB)
	414620  -  ResidentSetSize of job (KB)
...
006 (3447424.013.000) 01/31 04:14:10 Image size of job updated: 434956
	405  -  MemoryUsage of job (MB)
	414668  -  ResidentSetSize of job (KB)
...
006 (3447424.013.000) 01/31 04:19:11 Image size of job updated: 434956
	405  -  MemoryUsage of job (MB)
	414696  -  ResidentSetSize of job (KB)
...
006 (3447424.013.000) 01/31 04:24:11 Image size of job updated: 434956
	406  -  MemoryUsage of job (MB)
	414736  -  ResidentSetSize of job (KB)
...
006 (3447424.013.000) 01/31 04:29:12 Image size of job updated: 434956
	406  -  MemoryUsage of job (MB)
	414764  -  ResidentSetSize of job (KB)
...
006 (3447424.013.000) 01/31 04:34:14 Image size of job updated: 434956
	406  -  MemoryUsage of job (MB)
	414780  -  ResidentSetSize of job (KB)
...
006 (3447424.013.000) 01/31 04:39:14 Image size of job updated: 434956
	406  -  MemoryUsage of job (MB)
	414800  -  ResidentSetSize of job (KB)
...
006 (3447424.013.000) 01/31 04:44:14 Image size of job updated: 434956
	406  -  MemoryUsage of job (MB)
	414924  -  ResidentSetSize of job (KB)
...
006 (3447424.013.000) 01/31 04:49:15 Image size of job updated: 434956
	406  -  MemoryUsage of job (MB)
	414928  -  ResidentSetSize of job (KB)
...
006 (3447424.013.000) 01/31 04:54:16 Image size of job updated: 434956
	406  -  MemoryUsage of job (MB)
	414960  -  ResidentSetSize of job (KB)
...
006 (3447424.013.000) 01/31 04:59:16 Image size of job updated: 434956
	406  -  MemoryUsage of job (MB)
	414976  -  ResidentSetSize of job (KB)
...
006 (3447424.013.000) 01/31 05:09:17 Image size of job updated: 434956
	406  -  MemoryUsage of job (MB)
	415088  -  ResidentSetSize of job (KB)
...
006 (3447424.013.000) 01/31 05:14:17 Image size of job updated: 434956
	406  -  MemoryUsage of job (MB)
	415100  -  ResidentSetSize of job (KB)
...
006 (3447424.013.000) 01/31 05:19:17 Image size of job updated: 434956
	406  -  MemoryUsage of job (MB)
	415148  -  ResidentSetSize of job (KB)
...
006 (3447424.013.000) 01/31 05:24:18 Image size of job updated: 434956
	406  -  MemoryUsage of job (MB)
	415200  -  ResidentSetSize of job (KB)
...
006 (3447424.013.000) 01/31 05:29:19 Image size of job updated: 434956
	406  -  MemoryUsage of job (MB)
	415212  -  ResidentSetSize of job (KB)
...
006 (3447424.013.000) 01/31 05:34:19 Image size of job updated: 434956
	406  -  MemoryUsage of job (MB)
	415292  -  ResidentSetSize of job (KB)
...
006 (3447424.013.000) 01/31 05:39:19 Image size of job updated: 434956
	406  -  MemoryUsage of job (MB)
	415308  -  ResidentSetSize of job (KB)
...
006 (3447424.013.000) 01/31 05:44:20 Image size of job updated: 434956
	406  -  MemoryUsage of job (MB)
	415400  -  ResidentSetSize of job (KB)
...
006 (3447424.013.000) 01/31 05:49:20 Image size of job updated: 434956
	406  -  MemoryUsage of job (MB)
	415472  -  ResidentSetSize of job (KB)
...
006 (3447424.013.000) 01/31 05:54:20 Image size of job updated: 434956
	406  -  MemoryUsage of job (MB)
	415488  -  ResidentSetSize of job (KB)
...
006 (3447424.013.000) 01/31 05:59:21 Image size of job updated: 434956
	406  -  MemoryUsage of job (MB)
	415516  -  ResidentSetSize of job (KB)
...
006 (3447424.013.000) 01/31 06:04:22 Image size of job updated: 434956
	406  -  MemoryUsage of job (MB)
	415604  -  ResidentSetSize of job (KB)
...
006 (3447424.013.000) 01/31 06:09:22 Image size of job updated: 434956
	406  -  MemoryUsage of job (MB)
	415680  -  ResidentSetSize of job (KB)
...
006 (3447424.013.000) 01/31 06:19:23 Image size of job updated: 434956
	406  -  MemoryUsage of job (MB)
	415712  -  ResidentSetSize of job (KB)
...
006 (3447424.013.000) 01/31 06:24:24 Image size of job updated: 434956
	407  -  MemoryUsage of job (MB)
	415764  -  ResidentSetSize of job (KB)
...
006 (3447424.013.000) 01/31 06:29:24 Image size of job updated: 434956
	407  -  MemoryUsage of job (MB)
	415864  -  ResidentSetSize of job (KB)
...
006 (3447424.013.000) 01/31 06:34:25 Image size of job updated: 434956
	407  -  MemoryUsage of job (MB)
	415904  -  ResidentSetSize of job (KB)
...
006 (3447424.013.000) 01/31 06:44:26 Image size of job updated: 434956
	407  -  MemoryUsage of job (MB)
	416068  -  ResidentSetSize of job (KB)
...
006 (3447424.013.000) 01/31 06:49:26 Image size of job updated: 434956
	407  -  MemoryUsage of job (MB)
	416080  -  ResidentSetSize of job (KB)
...
006 (3447424.013.000) 01/31 06:54:27 Image size of job updated: 434956
	407  -  MemoryUsage of job (MB)
	416128  -  ResidentSetSize of job (KB)
...
006 (3447424.013.000) 01/31 06:59:27 Image size of job updated: 434956
	407  -  MemoryUsage of job (MB)
	416132  -  ResidentSetSize of job (KB)
...
006 (3447424.013.000) 01/31 07:04:27 Image size of job updated: 434956
	407  -  MemoryUsage of job (MB)
	416204  -  ResidentSetSize of job (KB)
...
006 (3447424.013.000) 01/31 07:09:28 Image size of job updated: 434956
	407  -  MemoryUsage of job (MB)
	416236  -  ResidentSetSize of job (KB)
...
006 (3447424.013.000) 01/31 07:14:29 Image size of job updated: 434956
	407  -  MemoryUsage of job (MB)
	416320  -  ResidentSetSize of job (KB)
...
006 (3447424.013.000) 01/31 07:19:29 Image size of job updated: 434956
	407  -  MemoryUsage of job (MB)
	416376  -  ResidentSetSize of job (KB)
...
006 (3447424.013.000) 01/31 07:29:30 Image size of job updated: 434956
	407  -  MemoryUsage of job (MB)
	416440  -  ResidentSetSize of job (KB)
...
006 (3447424.013.000) 01/31 07:34:30 Image size of job updated: 434956
	407  -  MemoryUsage of job (MB)
	416444  -  ResidentSetSize of job (KB)
...
006 (3447424.013.000) 01/31 07:39:30 Image size of job updated: 434956
	407  -  MemoryUsage of job (MB)
	416456  -  ResidentSetSize of job (KB)
...
006 (3447424.013.000) 01/31 07:44:31 Image size of job updated: 434956
	407  -  MemoryUsage of job (MB)
	416560  -  ResidentSetSize of job (KB)
...
006 (3447424.013.000) 01/31 07:49:32 Image size of job updated: 434956
	407  -  MemoryUsage of job (MB)
	416596  -  ResidentSetSize of job (KB)
...
006 (3447424.013.000) 01/31 07:54:32 Image size of job updated: 434956
	407  -  MemoryUsage of job (MB)
	416636  -  ResidentSetSize of job (KB)
...
006 (3447424.013.000) 01/31 07:59:33 Image size of job updated: 434956
	407  -  MemoryUsage of job (MB)
	416712  -  ResidentSetSize of job (KB)
...
006 (3447424.013.000) 01/31 08:04:34 Image size of job updated: 434956
	407  -  MemoryUsage of job (MB)
	416748  -  ResidentSetSize of job (KB)
...
006 (3447424.013.000) 01/31 08:09:34 Image size of job updated: 434956
	407  -  MemoryUsage of job (MB)
	416768  -  ResidentSetSize of job (KB)
...
006 (3447424.013.000) 01/31 08:14:35 Image size of job updated: 434956
	408  -  MemoryUsage of job (MB)
	416820  -  ResidentSetSize of job (KB)
...
006 (3447424.013.000) 01/31 08:19:36 Image size of job updated: 434956
	408  -  MemoryUsage of job (MB)
	416844  -  ResidentSetSize of job (KB)
...
006 (3447424.013.000) 01/31 08:24:36 Image size of job updated: 434956
	408  -  MemoryUsage of job (MB)
	416848  -  ResidentSetSize of job (KB)
...
006 (3447424.013.000) 01/31 08:29:36 Image size of job updated: 434956
	408  -  MemoryUsage of job (MB)
	416916  -  ResidentSetSize of job (KB)
...
006 (3447424.013.000) 01/31 08:34:37 Image size of job updated: 434956
	408  -  MemoryUsage of job (MB)
	416944  -  ResidentSetSize of job (KB)
...
006 (3447424.013.000) 01/31 08:39:37 Image size of job updated: 434956
	408  -  MemoryUsage of job (MB)
	417004  -  ResidentSetSize of job (KB)
...
006 (3447424.013.000) 01/31 08:44:37 Image size of job updated: 434956
	408  -  MemoryUsage of job (MB)
	417028  -  ResidentSetSize of job (KB)
...
006 (3447424.013.000) 01/31 08:49:38 Image size of job updated: 434956
	408  -  MemoryUsage of job (MB)
	417060  -  ResidentSetSize of job (KB)
...
006 (3447424.013.000) 01/31 08:54:39 Image size of job updated: 434956
	408  -  MemoryUsage of job (MB)
	417088  -  ResidentSetSize of job (KB)
...
006 (3447424.013.000) 01/31 08:59:39 Image size of job updated: 434956
	408  -  MemoryUsage of job (MB)
	417100  -  ResidentSetSize of job (KB)
...
006 (3447424.013.000) 01/31 09:04:40 Image size of job updated: 434956
	408  -  MemoryUsage of job (MB)
	417172  -  ResidentSetSize of job (KB)
...
006 (3447424.013.000) 01/31 09:09:41 Image size of job updated: 434956
	408  -  MemoryUsage of job (MB)
	417192  -  ResidentSetSize of job (KB)
...
006 (3447424.013.000) 01/31 09:14:41 Image size of job updated: 434956
	408  -  MemoryUsage of job (MB)
	417224  -  ResidentSetSize of job (KB)
...
006 (3447424.013.000) 01/31 09:19:41 Image size of job updated: 434956
	408  -  MemoryUsage of job (MB)
	417280  -  ResidentSetSize of job (KB)
...
006 (3447424.013.000) 01/31 09:29:43 Image size of job updated: 434956
	408  -  MemoryUsage of job (MB)
	417336  -  ResidentSetSize of job (KB)
...
006 (3447424.013.000) 01/31 09:34:43 Image size of job updated: 434956
	408  -  MemoryUsage of job (MB)
	417360  -  ResidentSetSize of job (KB)
...
006 (3447424.013.000) 01/31 09:39:43 Image size of job updated: 434956
	408  -  MemoryUsage of job (MB)
	417392  -  ResidentSetSize of job (KB)
...
006 (3447424.013.000) 01/31 09:44:44 Image size of job updated: 434956
	408  -  MemoryUsage of job (MB)
	417464  -  ResidentSetSize of job (KB)
...
006 (3447424.013.000) 01/31 09:49:44 Image size of job updated: 434956
	408  -  MemoryUsage of job (MB)
	417476  -  ResidentSetSize of job (KB)
...
006 (3447424.013.000) 01/31 09:54:44 Image size of job updated: 434956
	408  -  MemoryUsage of job (MB)
	417520  -  ResidentSetSize of job (KB)
...
006 (3447424.013.000) 01/31 09:59:45 Image size of job updated: 434956
	408  -  MemoryUsage of job (MB)
	417532  -  ResidentSetSize of job (KB)
...
006 (3447424.013.000) 01/31 10:04:46 Image size of job updated: 434956
	408  -  MemoryUsage of job (MB)
	417544  -  ResidentSetSize of job (KB)
...
006 (3447424.013.000) 01/31 10:09:46 Image size of job updated: 434956
	408  -  MemoryUsage of job (MB)
	417588  -  ResidentSetSize of job (KB)
...
006 (3447424.013.000) 01/31 10:14:47 Image size of job updated: 434956
	408  -  MemoryUsage of job (MB)
	417684  -  ResidentSetSize of job (KB)
...
006 (3447424.013.000) 01/31 10:19:48 Image size of job updated: 434956
	408  -  MemoryUsage of job (MB)
	417712  -  ResidentSetSize of job (KB)
...
006 (3447424.013.000) 01/31 10:24:48 Image size of job updated: 434956
	408  -  MemoryUsage of job (MB)
	417756  -  ResidentSetSize of job (KB)
...
006 (3447424.013.000) 01/31 10:29:48 Image size of job updated: 434956
	409  -  MemoryUsage of job (MB)
	417800  -  ResidentSetSize of job (KB)
...
006 (3447424.013.000) 01/31 10:34:49 Image size of job updated: 434956
	409  -  MemoryUsage of job (MB)
	417828  -  ResidentSetSize of job (KB)
...
006 (3447424.013.000) 01/31 10:39:50 Image size of job updated: 434956
	409  -  MemoryUsage of job (MB)
	417868  -  ResidentSetSize of job (KB)
...
006 (3447424.013.000) 01/31 10:44:50 Image size of job updated: 434956
	409  -  MemoryUsage of job (MB)
	417896  -  ResidentSetSize of job (KB)
...
006 (3447424.013.000) 01/31 10:49:51 Image size of job updated: 434956
	409  -  MemoryUsage of job (MB)
	417936  -  ResidentSetSize of job (KB)
...
006 (3447424.013.000) 01/31 10:54:52 Image size of job updated: 434956
	409  -  MemoryUsage of job (MB)
	418000  -  ResidentSetSize of job (KB)
...
006 (3447424.013.000) 01/31 10:59:52 Image size of job updated: 434956
	409  -  MemoryUsage of job (MB)
	418036  -  ResidentSetSize of job (KB)
...
006 (3447424.013.000) 01/31 11:04:53 Image size of job updated: 434956
	409  -  MemoryUsage of job (MB)
	418060  -  ResidentSetSize of job (KB)
...
006 (3447424.013.000) 01/31 11:09:54 Image size of job updated: 434956
	409  -  MemoryUsage of job (MB)
	418108  -  ResidentSetSize of job (KB)
...
006 (3447424.013.000) 01/31 11:14:54 Image size of job updated: 434956
	409  -  MemoryUsage of job (MB)
	418112  -  ResidentSetSize of job (KB)
...
006 (3447424.013.000) 01/31 11:19:54 Image size of job updated: 434956
	409  -  MemoryUsage of job (MB)
	418176  -  ResidentSetSize of job (KB)
...
006 (3447424.013.000) 01/31 11:24:55 Image size of job updated: 434956
	409  -  MemoryUsage of job (MB)
	418216  -  ResidentSetSize of job (KB)
...
006 (3447424.013.000) 01/31 11:34:55 Image size of job updated: 434956
	409  -  MemoryUsage of job (MB)
	418288  -  ResidentSetSize of job (KB)
...
006 (3447424.013.000) 01/31 11:44:56 Image size of job updated: 434956
	409  -  MemoryUsage of job (MB)
	418344  -  ResidentSetSize of job (KB)
...
006 (3447424.013.000) 01/31 11:49:56 Image size of job updated: 434956
	409  -  MemoryUsage of job (MB)
	418380  -  ResidentSetSize of job (KB)
...
006 (3447424.013.000) 01/31 11:54:57 Image size of job updated: 434956
	411  -  MemoryUsage of job (MB)
	420196  -  ResidentSetSize of job (KB)
...
006 (3447424.013.000) 01/31 11:59:58 Image size of job updated: 434956
	411  -  MemoryUsage of job (MB)
	420296  -  ResidentSetSize of job (KB)
...
006 (3447424.013.000) 01/31 12:09:59 Image size of job updated: 436436
	411  -  MemoryUsage of job (MB)
	420400  -  ResidentSetSize of job (KB)
...
006 (3447424.013.000) 01/31 12:15:00 Image size of job updated: 438072
	412  -  MemoryUsage of job (MB)
	421576  -  ResidentSetSize of job (KB)
...
006 (3447424.013.000) 01/31 12:20:00 Image size of job updated: 438140
	412  -  MemoryUsage of job (MB)
	421644  -  ResidentSetSize of job (KB)
...
006 (3447424.013.000) 01/31 12:25:01 Image size of job updated: 438348
	412  -  MemoryUsage of job (MB)
	421852  -  ResidentSetSize of job (KB)
...
006 (3447424.013.000) 01/31 12:30:02 Image size of job updated: 438396
	413  -  MemoryUsage of job (MB)
	421900  -  ResidentSetSize of job (KB)
...
006 (3447424.013.000) 01/31 12:35:02 Image size of job updated: 438436
	413  -  MemoryUsage of job (MB)
	421940  -  ResidentSetSize of job (KB)
...
006 (3447424.013.000) 01/31 12:40:02 Image size of job updated: 438560
	413  -  MemoryUsage of job (MB)
	422064  -  ResidentSetSize of job (KB)
...
006 (3447424.013.000) 01/31 12:45:03 Image size of job updated: 438688
	413  -  MemoryUsage of job (MB)
	422192  -  ResidentSetSize of job (KB)
...
006 (3447424.013.000) 01/31 12:50:03 Image size of job updated: 438824
	413  -  MemoryUsage of job (MB)
	422328  -  ResidentSetSize of job (KB)
...
006 (3447424.013.000) 01/31 12:55:03 Image size of job updated: 438932
	413  -  MemoryUsage of job (MB)
	422448  -  ResidentSetSize of job (KB)
...
006 (3447424.013.000) 01/31 13:00:05 Image size of job updated: 438976
	413  -  MemoryUsage of job (MB)
	422492  -  ResidentSetSize of job (KB)
...
006 (3447424.013.000) 01/31 13:05:05 Image size of job updated: 439232
	413  -  MemoryUsage of job (MB)
	422748  -  ResidentSetSize of job (KB)
...
006 (3447424.013.000) 01/31 13:10:05 Image size of job updated: 439296
	413  -  MemoryUsage of job (MB)
	422812  -  ResidentSetSize of job (KB)
...
006 (3447424.013.000) 01/31 13:15:06 Image size of job updated: 439332
	413  -  MemoryUsage of job (MB)
	422848  -  ResidentSetSize of job (KB)
...
006 (3447424.013.000) 01/31 13:20:07 Image size of job updated: 439356
	414  -  MemoryUsage of job (MB)
	422976  -  ResidentSetSize of job (KB)
...
006 (3447424.013.000) 01/31 13:25:07 Image size of job updated: 439572
	414  -  MemoryUsage of job (MB)
	423192  -  ResidentSetSize of job (KB)
...
006 (3447424.013.000) 01/31 13:30:07 Image size of job updated: 439680
	414  -  MemoryUsage of job (MB)
	423300  -  ResidentSetSize of job (KB)
...
006 (3447424.013.000) 01/31 13:35:08 Image size of job updated: 439744
	414  -  MemoryUsage of job (MB)
	423364  -  ResidentSetSize of job (KB)
...
006 (3447424.013.000) 01/31 13:40:08 Image size of job updated: 439920
	414  -  MemoryUsage of job (MB)
	423540  -  ResidentSetSize of job (KB)
...
006 (3447424.013.000) 01/31 13:45:08 Image size of job updated: 439972
	414  -  MemoryUsage of job (MB)
	423592  -  ResidentSetSize of job (KB)
...
006 (3447424.013.000) 01/31 13:50:09 Image size of job updated: 440092
	414  -  MemoryUsage of job (MB)
	423712  -  ResidentSetSize of job (KB)
...
006 (3447424.013.000) 01/31 13:55:09 Image size of job updated: 440268
	414  -  MemoryUsage of job (MB)
	423888  -  ResidentSetSize of job (KB)
...
006 (3447424.013.000) 01/31 14:00:09 Image size of job updated: 440284
	414  -  MemoryUsage of job (MB)
	423904  -  ResidentSetSize of job (KB)
...
006 (3447424.013.000) 01/31 14:05:11 Image size of job updated: 440528
	415  -  MemoryUsage of job (MB)
	424148  -  ResidentSetSize of job (KB)
...
006 (3447424.013.000) 01/31 14:10:11 Image size of job updated: 440608
	415  -  MemoryUsage of job (MB)
	424228  -  ResidentSetSize of job (KB)
...
006 (3447424.013.000) 01/31 14:15:11 Image size of job updated: 440684
	415  -  MemoryUsage of job (MB)
	424304  -  ResidentSetSize of job (KB)
...
006 (3447424.013.000) 01/31 14:20:12 Image size of job updated: 440708
	415  -  MemoryUsage of job (MB)
	424328  -  ResidentSetSize of job (KB)
...
006 (3447424.013.000) 01/31 14:25:13 Image size of job updated: 440892
	415  -  MemoryUsage of job (MB)
	424512  -  ResidentSetSize of job (KB)
...
006 (3447424.013.000) 01/31 14:30:13 Image size of job updated: 440948
	415  -  MemoryUsage of job (MB)
	424568  -  ResidentSetSize of job (KB)
...
006 (3447424.013.000) 01/31 14:35:14 Image size of job updated: 440968
	415  -  MemoryUsage of job (MB)
	424588  -  ResidentSetSize of job (KB)
...
006 (3447424.013.000) 01/31 14:40:15 Image size of job updated: 441064
	415  -  MemoryUsage of job (MB)
	424684  -  ResidentSetSize of job (KB)
...
006 (3447424.013.000) 01/31 14:45:15 Image size of job updated: 441208
	415  -  MemoryUsage of job (MB)
	424828  -  ResidentSetSize of job (KB)
...
006 (3447424.013.000) 01/31 14:50:15 Image size of job updated: 441288
	415  -  MemoryUsage of job (MB)
	424908  -  ResidentSetSize of job (KB)
...
006 (3447424.013.000) 01/31 14:55:16 Image size of job updated: 441356
	416  -  MemoryUsage of job (MB)
	425012  -  ResidentSetSize of job (KB)
...
006 (3447424.013.000) 01/31 15:00:16 Image size of job updated: 441356
	416  -  MemoryUsage of job (MB)
	425052  -  ResidentSetSize of job (KB)
...
006 (3447424.013.000) 01/31 15:05:16 Image size of job updated: 441356
	416  -  MemoryUsage of job (MB)
	425108  -  ResidentSetSize of job (KB)
...
006 (3447424.013.000) 01/31 15:10:17 Image size of job updated: 441356
	416  -  MemoryUsage of job (MB)
	425220  -  ResidentSetSize of job (KB)
...
006 (3447424.013.000) 01/31 15:15:17 Image size of job updated: 441356
	416  -  MemoryUsage of job (MB)
	425516  -  ResidentSetSize of job (KB)
...
006 (3447424.013.000) 01/31 15:20:17 Image size of job updated: 441356
	416  -  MemoryUsage of job (MB)
	425872  -  ResidentSetSize of job (KB)
...
006 (3447424.013.000) 01/31 15:25:18 Image size of job updated: 441356
	417  -  MemoryUsage of job (MB)
	426416  -  ResidentSetSize of job (KB)
...
006 (3447424.013.000) 01/31 15:30:19 Image size of job updated: 441356
	417  -  MemoryUsage of job (MB)
	426476  -  ResidentSetSize of job (KB)
...
006 (3447424.013.000) 01/31 17:00:28 Image size of job updated: 441356
	417  -  MemoryUsage of job (MB)
	426500  -  ResidentSetSize of job (KB)
...
006 (3447424.013.000) 01/31 17:15:29 Image size of job updated: 441356
	417  -  MemoryUsage of job (MB)
	426536  -  ResidentSetSize of job (KB)
...
006 (3447424.013.000) 01/31 17:22:36 Image size of job updated: 441356
	417  -  MemoryUsage of job (MB)
	426580  -  ResidentSetSize of job (KB)
...
006 (3447424.013.000) 01/31 17:28:54 Image size of job updated: 441356
	417  -  MemoryUsage of job (MB)
	426596  -  ResidentSetSize of job (KB)
...
006 (3447424.013.000) 01/31 17:33:57 Image size of job updated: 441356
	417  -  MemoryUsage of job (MB)
	426624  -  ResidentSetSize of job (KB)
...
006 (3447424.013.000) 01/31 17:38:58 Image size of job updated: 441356
	417  -  MemoryUsage of job (MB)
	426636  -  ResidentSetSize of job (KB)
...
006 (3447424.013.000) 01/31 17:43:58 Image size of job updated: 441356
	417  -  MemoryUsage of job (MB)
	426664  -  ResidentSetSize of job (KB)
...
006 (3447424.013.000) 01/31 17:48:58 Image size of job updated: 441356
	417  -  MemoryUsage of job (MB)
	426680  -  ResidentSetSize of job (KB)
...
006 (3447424.013.000) 01/31 17:58:59 Image size of job updated: 441356
	417  -  MemoryUsage of job (MB)
	426700  -  ResidentSetSize of job (KB)
...
006 (3447424.013.000) 01/31 18:03:59 Image size of job updated: 441356
	417  -  MemoryUsage of job (MB)
	426724  -  ResidentSetSize of job (KB)
...
006 (3447424.013.000) 01/31 18:09:00 Image size of job updated: 441356
	417  -  MemoryUsage of job (MB)
	426736  -  ResidentSetSize of job (KB)
...
006 (3447424.013.000) 01/31 18:14:00 Image size of job updated: 441356
	417  -  MemoryUsage of job (MB)
	426768  -  ResidentSetSize of job (KB)
...
006 (3447424.013.000) 01/31 18:24:02 Image size of job updated: 441356
	417  -  MemoryUsage of job (MB)
	426772  -  ResidentSetSize of job (KB)
...
006 (3447424.013.000) 01/31 18:54:05 Image size of job updated: 441356
	417  -  MemoryUsage of job (MB)
	426796  -  ResidentSetSize of job (KB)
...
006 (3447424.013.000) 01/31 19:04:06 Image size of job updated: 441356
	417  -  MemoryUsage of job (MB)
	426816  -  ResidentSetSize of job (KB)
...
006 (3447424.013.000) 01/31 19:24:09 Image size of job updated: 441356
	417  -  MemoryUsage of job (MB)
	426836  -  ResidentSetSize of job (KB)
...
006 (3447424.013.000) 01/31 19:34:10 Image size of job updated: 441356
	417  -  MemoryUsage of job (MB)
	426864  -  ResidentSetSize of job (KB)
...
006 (3447424.013.000) 01/31 19:44:11 Image size of job updated: 441356
	417  -  MemoryUsage of job (MB)
	426896  -  ResidentSetSize of job (KB)
...
006 (3447424.013.000) 01/31 19:54:11 Image size of job updated: 441356
	417  -  MemoryUsage of job (MB)
	426900  -  ResidentSetSize of job (KB)
...
006 (3447424.013.000) 01/31 20:04:13 Image size of job updated: 441356
	417  -  MemoryUsage of job (MB)
	426908  -  ResidentSetSize of job (KB)
...
006 (3447424.013.000) 01/31 20:14:13 Image size of job updated: 441356
	417  -  MemoryUsage of job (MB)
	426936  -  ResidentSetSize of job (KB)
...
006 (3447424.013.000) 01/31 20:24:15 Image size of job updated: 441356
	417  -  MemoryUsage of job (MB)
	426984  -  ResidentSetSize of job (KB)
...
006 (3447424.013.000) 01/31 20:34:15 Image size of job updated: 441356
	417  -  MemoryUsage of job (MB)
	426996  -  ResidentSetSize of job (KB)
...
006 (3447424.013.000) 01/31 20:54:17 Image size of job updated: 441356
	417  -  MemoryUsage of job (MB)
	427008  -  ResidentSetSize of job (KB)
...
006 (3447424.013.000) 01/31 21:14:20 Image size of job updated: 441356
	418  -  MemoryUsage of job (MB)
	427020  -  ResidentSetSize of job (KB)
...
006 (3447424.013.000) 01/31 21:54:24 Image size of job updated: 441356
	418  -  MemoryUsage of job (MB)
	427024  -  ResidentSetSize of job (KB)
...
006 (3447424.013.000) 01/31 22:14:03 Image size of job updated: 441356
	418  -  MemoryUsage of job (MB)
	427048  -  ResidentSetSize of job (KB)
...
006 (3447424.013.000) 01/31 22:27:56 Image size of job updated: 441356
	418  -  MemoryUsage of job (MB)
	427108  -  ResidentSetSize of job (KB)
...
006 (3447424.013.000) 01/31 22:39:03 Image size of job updated: 441356
	418  -  MemoryUsage of job (MB)
	427136  -  ResidentSetSize of job (KB)
...
006 (3447424.013.000) 01/31 22:50:44 Image size of job updated: 441356
	418  -  MemoryUsage of job (MB)
	427180  -  ResidentSetSize of job (KB)
...
006 (3447424.013.000) 01/31 22:55:45 Image size of job updated: 441356
	418  -  MemoryUsage of job (MB)
	427204  -  ResidentSetSize of job (KB)
...
006 (3447424.013.000) 01/31 23:10:47 Image size of job updated: 441356
	418  -  MemoryUsage of job (MB)
	427244  -  ResidentSetSize of job (KB)
...
006 (3447424.013.000) 01/31 23:20:47 Image size of job updated: 441356
	418  -  MemoryUsage of job (MB)
	427316  -  ResidentSetSize of job (KB)
...
006 (3447424.013.000) 01/31 23:30:49 Image size of job updated: 441356
	418  -  MemoryUsage of job (MB)
	427336  -  ResidentSetSize of job (KB)
...
006 (3447424.013.000) 01/31 23:50:50 Image size of job updated: 441356
	418  -  MemoryUsage of job (MB)
	427456  -  ResidentSetSize of job (KB)
...
006 (3447424.013.000) 01/31 23:55:50 Image size of job updated: 441356
	418  -  MemoryUsage of job (MB)
	427464  -  ResidentSetSize of job (KB)
...
006 (3447424.013.000) 02/01 00:05:52 Image size of job updated: 441356
	418  -  MemoryUsage of job (MB)
	427568  -  ResidentSetSize of job (KB)
...
006 (3447424.013.000) 02/01 00:10:52 Image size of job updated: 441356
	418  -  MemoryUsage of job (MB)
	427600  -  ResidentSetSize of job (KB)
...
006 (3447424.013.000) 02/01 00:15:53 Image size of job updated: 441356
	418  -  MemoryUsage of job (MB)
	427640  -  ResidentSetSize of job (KB)
...
006 (3447424.013.000) 02/01 00:20:54 Image size of job updated: 441356
	418  -  MemoryUsage of job (MB)
	427660  -  ResidentSetSize of job (KB)
...
006 (3447424.013.000) 02/01 00:25:54 Image size of job updated: 441356
	418  -  MemoryUsage of job (MB)
	427676  -  ResidentSetSize of job (KB)
...
006 (3447424.013.000) 02/01 00:30:54 Image size of job updated: 441356
	418  -  MemoryUsage of job (MB)
	427688  -  ResidentSetSize of job (KB)
...
006 (3447424.013.000) 02/01 00:35:55 Image size of job updated: 441356
	418  -  MemoryUsage of job (MB)
	427712  -  ResidentSetSize of job (KB)
...
006 (3447424.013.000) 02/01 00:40:56 Image size of job updated: 441356
	418  -  MemoryUsage of job (MB)
	427740  -  ResidentSetSize of job (KB)
...
006 (3447424.013.000) 02/01 00:45:56 Image size of job updated: 441356
	418  -  MemoryUsage of job (MB)
	427772  -  ResidentSetSize of job (KB)
...
006 (3447424.013.000) 02/01 00:50:56 Image size of job updated: 441356
	418  -  MemoryUsage of job (MB)
	427776  -  ResidentSetSize of job (KB)
...
006 (3447424.013.000) 02/01 00:55:57 Image size of job updated: 441356
	418  -  MemoryUsage of job (MB)
	427828  -  ResidentSetSize of job (KB)
...
006 (3447424.013.000) 02/01 02:51:09 Image size of job updated: 441356
	418  -  MemoryUsage of job (MB)
	427836  -  ResidentSetSize of job (KB)
...
006 (3447424.013.000) 02/01 02:56:10 Image size of job updated: 441356
	418  -  MemoryUsage of job (MB)
	427848  -  ResidentSetSize of job (KB)
...
006 (3447424.013.000) 02/01 03:01:10 Image size of job updated: 441356
	418  -  MemoryUsage of job (MB)
	427856  -  ResidentSetSize of job (KB)
...
006 (3447424.013.000) 02/01 03:16:11 Image size of job updated: 441356
	418  -  MemoryUsage of job (MB)
	427864  -  ResidentSetSize of job (KB)
...
006 (3447424.013.000) 02/01 03:21:11 Image size of job updated: 441356
	418  -  MemoryUsage of job (MB)
	427872  -  ResidentSetSize of job (KB)
...
006 (3447424.013.000) 02/01 03:26:12 Image size of job updated: 441356
	418  -  MemoryUsage of job (MB)
	427896  -  ResidentSetSize of job (KB)
...
006 (3447424.013.000) 02/01 03:36:12 Image size of job updated: 441356
	418  -  MemoryUsage of job (MB)
	427924  -  ResidentSetSize of job (KB)
...
006 (3447424.013.000) 02/01 03:41:13 Image size of job updated: 441356
	418  -  MemoryUsage of job (MB)
	427952  -  ResidentSetSize of job (KB)
...
006 (3447424.013.000) 02/01 03:46:14 Image size of job updated: 441356
	418  -  MemoryUsage of job (MB)
	427984  -  ResidentSetSize of job (KB)
...
006 (3447424.013.000) 02/01 03:51:14 Image size of job updated: 441356
	418  -  MemoryUsage of job (MB)
	427996  -  ResidentSetSize of job (KB)
...
006 (3447424.013.000) 02/01 03:56:15 Image size of job updated: 441356
	419  -  MemoryUsage of job (MB)
	428036  -  ResidentSetSize of job (KB)
...
006 (3447424.013.000) 02/01 04:01:16 Image size of job updated: 441356
	419  -  MemoryUsage of job (MB)
	428064  -  ResidentSetSize of job (KB)
...
006 (3447424.013.000) 02/01 04:06:16 Image size of job updated: 441356
	419  -  MemoryUsage of job (MB)
	428116  -  ResidentSetSize of job (KB)
...
006 (3447424.013.000) 02/01 04:34:28 Image size of job updated: 441356
	419  -  MemoryUsage of job (MB)
	428160  -  ResidentSetSize of job (KB)
...
006 (3447424.013.000) 02/01 04:39:28 Image size of job updated: 441356
	419  -  MemoryUsage of job (MB)
	428192  -  ResidentSetSize of job (KB)
...
006 (3447424.013.000) 02/01 04:44:28 Image size of job updated: 441356
	419  -  MemoryUsage of job (MB)
	428200  -  ResidentSetSize of job (KB)
...
006 (3447424.013.000) 02/01 04:49:29 Image size of job updated: 441356
	419  -  MemoryUsage of job (MB)
	428220  -  ResidentSetSize of job (KB)
...
006 (3447424.013.000) 02/01 05:19:31 Image size of job updated: 441356
	419  -  MemoryUsage of job (MB)
	428228  -  ResidentSetSize of job (KB)
...
006 (3447424.013.000) 02/01 05:24:32 Image size of job updated: 441356
	419  -  MemoryUsage of job (MB)
	428256  -  ResidentSetSize of job (KB)
...
006 (3447424.013.000) 02/01 05:29:32 Image size of job updated: 441356
	419  -  MemoryUsage of job (MB)
	428284  -  ResidentSetSize of job (KB)
...
006 (3447424.013.000) 02/01 05:34:33 Image size of job updated: 441356
	419  -  MemoryUsage of job (MB)
	428320  -  ResidentSetSize of job (KB)
...
006 (3447424.013.000) 02/01 05:49:35 Image size of job updated: 441356
	419  -  MemoryUsage of job (MB)
	428344  -  ResidentSetSize of job (KB)
...
006 (3447424.013.000) 02/01 05:59:36 Image size of job updated: 441356
	419  -  MemoryUsage of job (MB)
	428356  -  ResidentSetSize of job (KB)
...
006 (3447424.013.000) 02/01 06:14:38 Image size of job updated: 441356
	419  -  MemoryUsage of job (MB)
	428380  -  ResidentSetSize of job (KB)
...
006 (3447424.013.000) 02/01 06:24:40 Image size of job updated: 441356
	419  -  MemoryUsage of job (MB)
	428404  -  ResidentSetSize of job (KB)
...
006 (3447424.013.000) 02/01 06:34:41 Image size of job updated: 441356
	419  -  MemoryUsage of job (MB)
	428420  -  ResidentSetSize of job (KB)
...
006 (3447424.013.000) 02/01 06:54:44 Image size of job updated: 441356
	419  -  MemoryUsage of job (MB)
	428432  -  ResidentSetSize of job (KB)
...
006 (3447424.013.000) 02/01 07:04:45 Image size of job updated: 441356
	419  -  MemoryUsage of job (MB)
	428444  -  ResidentSetSize of job (KB)
...
006 (3447424.013.000) 02/01 07:09:46 Image size of job updated: 441356
	419  -  MemoryUsage of job (MB)
	428452  -  ResidentSetSize of job (KB)
...
006 (3447424.013.000) 02/01 07:14:46 Image size of job updated: 441356
	419  -  MemoryUsage of job (MB)
	428472  -  ResidentSetSize of job (KB)
...
006 (3447424.013.000) 02/01 07:19:47 Image size of job updated: 441356
	419  -  MemoryUsage of job (MB)
	428484  -  ResidentSetSize of job (KB)
...
006 (3447424.013.000) 02/01 07:24:48 Image size of job updated: 441356
	419  -  MemoryUsage of job (MB)
	428528  -  ResidentSetSize of job (KB)
...
006 (3447424.013.000) 02/01 07:29:48 Image size of job updated: 441356
	419  -  MemoryUsage of job (MB)
	428532  -  ResidentSetSize of job (KB)
...
006 (3447424.013.000) 02/01 07:34:49 Image size of job updated: 441356
	419  -  MemoryUsage of job (MB)
	428536  -  ResidentSetSize of job (KB)
...
006 (3447424.013.000) 02/01 07:39:49 Image size of job updated: 441356
	419  -  MemoryUsage of job (MB)
	428552  -  ResidentSetSize of job (KB)
...
006 (3447424.013.000) 02/01 08:04:52 Image size of job updated: 441356
	419  -  MemoryUsage of job (MB)
	428572  -  ResidentSetSize of job (KB)
...
006 (3447424.013.000) 02/01 08:14:52 Image size of job updated: 441356
	419  -  MemoryUsage of job (MB)
	428608  -  ResidentSetSize of job (KB)
...
006 (3447424.013.000) 02/01 08:19:53 Image size of job updated: 441356
	419  -  MemoryUsage of job (MB)
	428632  -  ResidentSetSize of job (KB)
...
006 (3447424.013.000) 02/01 08:24:53 Image size of job updated: 441356
	419  -  MemoryUsage of job (MB)
	428672  -  ResidentSetSize of job (KB)
...
006 (3447424.013.000) 02/01 08:29:53 Image size of job updated: 441356
	419  -  MemoryUsage of job (MB)
	428708  -  ResidentSetSize of job (KB)
...
006 (3447424.013.000) 02/01 08:34:55 Image size of job updated: 441356
	419  -  MemoryUsage of job (MB)
	428776  -  ResidentSetSize of job (KB)
...
006 (3447424.013.000) 02/01 08:39:55 Image size of job updated: 441356
	419  -  MemoryUsage of job (MB)
	428836  -  ResidentSetSize of job (KB)
...
006 (3447424.013.000) 02/01 08:44:55 Image size of job updated: 441356
	419  -  MemoryUsage of job (MB)
	428860  -  ResidentSetSize of job (KB)
...
006 (3447424.013.000) 02/01 08:49:56 Image size of job updated: 441356
	419  -  MemoryUsage of job (MB)
	428864  -  ResidentSetSize of job (KB)
...
006 (3447424.013.000) 02/01 09:35:02 Image size of job updated: 441356
	419  -  MemoryUsage of job (MB)
	428876  -  ResidentSetSize of job (KB)
...
006 (3447424.013.000) 02/01 09:40:03 Image size of job updated: 441356
	419  -  MemoryUsage of job (MB)
	428888  -  ResidentSetSize of job (KB)
...
006 (3447424.013.000) 02/01 09:45:03 Image size of job updated: 441356
	419  -  MemoryUsage of job (MB)
	428896  -  ResidentSetSize of job (KB)
...
006 (3447424.013.000) 02/01 09:50:04 Image size of job updated: 441356
	419  -  MemoryUsage of job (MB)
	428916  -  ResidentSetSize of job (KB)
...
006 (3447424.013.000) 02/01 09:55:05 Image size of job updated: 441356
	419  -  MemoryUsage of job (MB)
	428968  -  ResidentSetSize of job (KB)
...
