000 (3444396.005.000) 01/29 18:50:48 Job submitted from host: <188.185.71.142:9618?addrs=188.185.71.142-9618+[2001-1458-d00-7--100-388]-9618&alias=bigbird09.cern.ch&noUDP&sock=schedd_2208_1533_7>
...
022 (3444396.005.000) 01/29 21:46:11 Job disconnected, attempting to reconnect
    Socket between submit and execute hosts closed unexpectedly
    Trying to reconnect to slot1_4@b7g42n0459.cern.ch <188.184.138.211:9618?addrs=188.184.138.211-9618+[2001-1458-301-45--100-bd]-9618&noUDP&sock=5597_a7a9_3>
...
024 (3444396.005.000) 01/29 21:46:11 Job reconnection failed
    Job not found at execution machine
    Can not reconnect to slot1_4@b7g42n0459.cern.ch, rescheduling job
...
040 (3444396.005.000) 01/30 04:11:38 Started transferring input files
	Transferring to host: <188.184.212.63:9618?addrs=188.184.212.63-9618+[2001-1458-301-10c--100-38]-9618&noUDP&sock=20441_4898_211654>
...
040 (3444396.005.000) 01/30 04:11:38 Finished transferring input files
...
001 (3444396.005.000) 01/30 04:11:39 Job executing on host: <188.184.212.63:9618?addrs=188.184.212.63-9618+[2001-1458-301-10c--100-38]-9618&noUDP&sock=20310_8c95_3>
...
006 (3444396.005.000) 01/30 04:11:47 Image size of job updated: 856
	1  -  MemoryUsage of job (MB)
	856  -  ResidentSetSize of job (KB)
...
006 (3444396.005.000) 01/30 04:16:47 Image size of job updated: 428168
	346  -  MemoryUsage of job (MB)
	353536  -  ResidentSetSize of job (KB)
...
006 (3444396.005.000) 01/30 04:21:48 Image size of job updated: 435532
	353  -  MemoryUsage of job (MB)
	360776  -  ResidentSetSize of job (KB)
...
006 (3444396.005.000) 01/30 05:26:53 Image size of job updated: 435544
	353  -  MemoryUsage of job (MB)
	360788  -  ResidentSetSize of job (KB)
...
006 (3444396.005.000) 01/30 09:02:16 Image size of job updated: 435544
	353  -  MemoryUsage of job (MB)
	360952  -  ResidentSetSize of job (KB)
...
006 (3444396.005.000) 01/30 09:07:17 Image size of job updated: 435544
	353  -  MemoryUsage of job (MB)
	360956  -  ResidentSetSize of job (KB)
...
006 (3444396.005.000) 01/30 09:12:17 Image size of job updated: 435544
	353  -  MemoryUsage of job (MB)
	361000  -  ResidentSetSize of job (KB)
...
006 (3444396.005.000) 01/30 09:17:18 Image size of job updated: 435544
	353  -  MemoryUsage of job (MB)
	361064  -  ResidentSetSize of job (KB)
...
006 (3444396.005.000) 01/30 09:22:19 Image size of job updated: 435544
	353  -  MemoryUsage of job (MB)
	361088  -  ResidentSetSize of job (KB)
...
006 (3444396.005.000) 01/30 09:27:19 Image size of job updated: 435544
	353  -  MemoryUsage of job (MB)
	361148  -  ResidentSetSize of job (KB)
...
006 (3444396.005.000) 01/30 09:32:19 Image size of job updated: 435544
	353  -  MemoryUsage of job (MB)
	361228  -  ResidentSetSize of job (KB)
...
006 (3444396.005.000) 01/30 09:37:20 Image size of job updated: 435544
	353  -  MemoryUsage of job (MB)
	361280  -  ResidentSetSize of job (KB)
...
006 (3444396.005.000) 01/30 09:42:20 Image size of job updated: 435544
	353  -  MemoryUsage of job (MB)
	361344  -  ResidentSetSize of job (KB)
...
006 (3444396.005.000) 01/30 10:17:23 Image size of job updated: 435544
	353  -  MemoryUsage of job (MB)
	361428  -  ResidentSetSize of job (KB)
...
006 (3444396.005.000) 01/30 10:22:24 Image size of job updated: 435544
	353  -  MemoryUsage of job (MB)
	361440  -  ResidentSetSize of job (KB)
...
006 (3444396.005.000) 01/30 10:27:25 Image size of job updated: 435544
	354  -  MemoryUsage of job (MB)
	361548  -  ResidentSetSize of job (KB)
...
006 (3444396.005.000) 01/30 10:32:25 Image size of job updated: 435544
	354  -  MemoryUsage of job (MB)
	361680  -  ResidentSetSize of job (KB)
...
006 (3444396.005.000) 01/30 10:37:26 Image size of job updated: 435544
	354  -  MemoryUsage of job (MB)
	361780  -  ResidentSetSize of job (KB)
...
006 (3444396.005.000) 01/30 10:42:27 Image size of job updated: 435544
	354  -  MemoryUsage of job (MB)
	361816  -  ResidentSetSize of job (KB)
...
006 (3444396.005.000) 01/30 10:47:27 Image size of job updated: 435544
	354  -  MemoryUsage of job (MB)
	361980  -  ResidentSetSize of job (KB)
...
006 (3444396.005.000) 01/30 10:52:27 Image size of job updated: 435544
	354  -  MemoryUsage of job (MB)
	362080  -  ResidentSetSize of job (KB)
...
006 (3444396.005.000) 01/30 11:02:28 Image size of job updated: 435544
	354  -  MemoryUsage of job (MB)
	362180  -  ResidentSetSize of job (KB)
...
006 (3444396.005.000) 01/30 11:07:28 Image size of job updated: 435544
	354  -  MemoryUsage of job (MB)
	362324  -  ResidentSetSize of job (KB)
...
006 (3444396.005.000) 01/30 11:12:29 Image size of job updated: 435544
	354  -  MemoryUsage of job (MB)
	362360  -  ResidentSetSize of job (KB)
...
006 (3444396.005.000) 01/30 11:17:29 Image size of job updated: 435544
	354  -  MemoryUsage of job (MB)
	362464  -  ResidentSetSize of job (KB)
...
006 (3444396.005.000) 01/30 11:22:29 Image size of job updated: 435544
	355  -  MemoryUsage of job (MB)
	362548  -  ResidentSetSize of job (KB)
...
006 (3444396.005.000) 01/30 11:27:31 Image size of job updated: 435544
	355  -  MemoryUsage of job (MB)
	362696  -  ResidentSetSize of job (KB)
...
006 (3444396.005.000) 01/30 11:37:31 Image size of job updated: 435544
	355  -  MemoryUsage of job (MB)
	362812  -  ResidentSetSize of job (KB)
...
006 (3444396.005.000) 01/30 11:42:32 Image size of job updated: 435544
	355  -  MemoryUsage of job (MB)
	362852  -  ResidentSetSize of job (KB)
...
006 (3444396.005.000) 01/30 11:47:33 Image size of job updated: 435544
	355  -  MemoryUsage of job (MB)
	363076  -  ResidentSetSize of job (KB)
...
006 (3444396.005.000) 01/30 11:52:33 Image size of job updated: 435544
	355  -  MemoryUsage of job (MB)
	363108  -  ResidentSetSize of job (KB)
...
006 (3444396.005.000) 01/30 11:57:34 Image size of job updated: 435544
	355  -  MemoryUsage of job (MB)
	363188  -  ResidentSetSize of job (KB)
...
006 (3444396.005.000) 01/30 12:02:35 Image size of job updated: 435544
	355  -  MemoryUsage of job (MB)
	363204  -  ResidentSetSize of job (KB)
...
006 (3444396.005.000) 01/30 12:07:35 Image size of job updated: 435544
	355  -  MemoryUsage of job (MB)
	363328  -  ResidentSetSize of job (KB)
...
006 (3444396.005.000) 01/30 12:12:35 Image size of job updated: 435544
	355  -  MemoryUsage of job (MB)
	363344  -  ResidentSetSize of job (KB)
...
006 (3444396.005.000) 01/30 12:17:36 Image size of job updated: 435544
	355  -  MemoryUsage of job (MB)
	363448  -  ResidentSetSize of job (KB)
...
006 (3444396.005.000) 01/30 12:22:36 Image size of job updated: 435544
	356  -  MemoryUsage of job (MB)
	363532  -  ResidentSetSize of job (KB)
...
006 (3444396.005.000) 01/30 12:27:36 Image size of job updated: 435544
	356  -  MemoryUsage of job (MB)
	363696  -  ResidentSetSize of job (KB)
...
006 (3444396.005.000) 01/30 12:32:37 Image size of job updated: 435544
	356  -  MemoryUsage of job (MB)
	363760  -  ResidentSetSize of job (KB)
...
006 (3444396.005.000) 01/30 12:37:38 Image size of job updated: 435544
	356  -  MemoryUsage of job (MB)
	363772  -  ResidentSetSize of job (KB)
...
006 (3444396.005.000) 01/30 12:42:38 Image size of job updated: 435544
	356  -  MemoryUsage of job (MB)
	363880  -  ResidentSetSize of job (KB)
...
006 (3444396.005.000) 01/30 12:47:39 Image size of job updated: 435544
	356  -  MemoryUsage of job (MB)
	363972  -  ResidentSetSize of job (KB)
...
006 (3444396.005.000) 01/30 12:52:40 Image size of job updated: 435544
	356  -  MemoryUsage of job (MB)
	364120  -  ResidentSetSize of job (KB)
...
006 (3444396.005.000) 01/30 12:57:40 Image size of job updated: 435544
	356  -  MemoryUsage of job (MB)
	364252  -  ResidentSetSize of job (KB)
...
006 (3444396.005.000) 01/30 13:02:40 Image size of job updated: 435544
	356  -  MemoryUsage of job (MB)
	364424  -  ResidentSetSize of job (KB)
...
006 (3444396.005.000) 01/30 13:07:42 Image size of job updated: 435544
	356  -  MemoryUsage of job (MB)
	364436  -  ResidentSetSize of job (KB)
...
006 (3444396.005.000) 01/30 13:17:42 Image size of job updated: 435544
	356  -  MemoryUsage of job (MB)
	364500  -  ResidentSetSize of job (KB)
...
006 (3444396.005.000) 01/30 13:22:43 Image size of job updated: 435544
	357  -  MemoryUsage of job (MB)
	364564  -  ResidentSetSize of job (KB)
...
006 (3444396.005.000) 01/30 13:27:43 Image size of job updated: 435544
	357  -  MemoryUsage of job (MB)
	364624  -  ResidentSetSize of job (KB)
...
006 (3444396.005.000) 01/30 13:32:44 Image size of job updated: 435544
	357  -  MemoryUsage of job (MB)
	364688  -  ResidentSetSize of job (KB)
...
006 (3444396.005.000) 01/30 13:37:45 Image size of job updated: 435544
	357  -  MemoryUsage of job (MB)
	364760  -  ResidentSetSize of job (KB)
...
006 (3444396.005.000) 01/30 13:42:45 Image size of job updated: 435544
	357  -  MemoryUsage of job (MB)
	364772  -  ResidentSetSize of job (KB)
...
006 (3444396.005.000) 01/30 13:47:45 Image size of job updated: 435544
	357  -  MemoryUsage of job (MB)
	364848  -  ResidentSetSize of job (KB)
...
006 (3444396.005.000) 01/30 13:52:46 Image size of job updated: 435544
	358  -  MemoryUsage of job (MB)
	366032  -  ResidentSetSize of job (KB)
...
006 (3444396.005.000) 01/30 13:57:46 Image size of job updated: 435544
	359  -  MemoryUsage of job (MB)
	367340  -  ResidentSetSize of job (KB)
...
006 (3444396.005.000) 01/30 14:02:46 Image size of job updated: 435544
	359  -  MemoryUsage of job (MB)
	367352  -  ResidentSetSize of job (KB)
...
006 (3444396.005.000) 01/30 14:07:47 Image size of job updated: 435544
	359  -  MemoryUsage of job (MB)
	367380  -  ResidentSetSize of job (KB)
...
006 (3444396.005.000) 01/30 14:12:47 Image size of job updated: 435544
	359  -  MemoryUsage of job (MB)
	367412  -  ResidentSetSize of job (KB)
...
006 (3444396.005.000) 01/30 14:17:47 Image size of job updated: 435544
	359  -  MemoryUsage of job (MB)
	367428  -  ResidentSetSize of job (KB)
...
006 (3444396.005.000) 01/30 14:22:48 Image size of job updated: 435544
	359  -  MemoryUsage of job (MB)
	367500  -  ResidentSetSize of job (KB)
...
006 (3444396.005.000) 01/30 14:27:49 Image size of job updated: 435544
	359  -  MemoryUsage of job (MB)
	367540  -  ResidentSetSize of job (KB)
...
006 (3444396.005.000) 01/30 14:32:49 Image size of job updated: 435544
	359  -  MemoryUsage of job (MB)
	367584  -  ResidentSetSize of job (KB)
...
006 (3444396.005.000) 01/30 14:37:50 Image size of job updated: 435544
	360  -  MemoryUsage of job (MB)
	367624  -  ResidentSetSize of job (KB)
...
006 (3444396.005.000) 01/30 14:42:51 Image size of job updated: 435544
	360  -  MemoryUsage of job (MB)
	367732  -  ResidentSetSize of job (KB)
...
006 (3444396.005.000) 01/30 14:47:51 Image size of job updated: 435544
	360  -  MemoryUsage of job (MB)
	367772  -  ResidentSetSize of job (KB)
...
006 (3444396.005.000) 01/30 14:52:52 Image size of job updated: 435544
	360  -  MemoryUsage of job (MB)
	367808  -  ResidentSetSize of job (KB)
...
006 (3444396.005.000) 01/30 14:57:53 Image size of job updated: 435544
	360  -  MemoryUsage of job (MB)
	367824  -  ResidentSetSize of job (KB)
...
006 (3444396.005.000) 01/30 15:02:53 Image size of job updated: 435544
	360  -  MemoryUsage of job (MB)
	367888  -  ResidentSetSize of job (KB)
...
006 (3444396.005.000) 01/30 15:07:54 Image size of job updated: 435544
	360  -  MemoryUsage of job (MB)
	367936  -  ResidentSetSize of job (KB)
...
006 (3444396.005.000) 01/30 15:12:55 Image size of job updated: 435544
	360  -  MemoryUsage of job (MB)
	367976  -  ResidentSetSize of job (KB)
...
006 (3444396.005.000) 01/30 15:22:55 Image size of job updated: 435544
	360  -  MemoryUsage of job (MB)
	368064  -  ResidentSetSize of job (KB)
...
006 (3444396.005.000) 01/30 15:27:56 Image size of job updated: 435544
	360  -  MemoryUsage of job (MB)
	368072  -  ResidentSetSize of job (KB)
...
006 (3444396.005.000) 01/30 15:32:56 Image size of job updated: 435544
	360  -  MemoryUsage of job (MB)
	368088  -  ResidentSetSize of job (KB)
...
006 (3444396.005.000) 01/30 15:37:56 Image size of job updated: 435544
	360  -  MemoryUsage of job (MB)
	368180  -  ResidentSetSize of job (KB)
...
006 (3444396.005.000) 01/30 15:42:57 Image size of job updated: 435544
	360  -  MemoryUsage of job (MB)
	368236  -  ResidentSetSize of job (KB)
...
006 (3444396.005.000) 01/30 15:47:58 Image size of job updated: 435544
	360  -  MemoryUsage of job (MB)
	368276  -  ResidentSetSize of job (KB)
...
006 (3444396.005.000) 01/30 15:52:58 Image size of job updated: 435544
	360  -  MemoryUsage of job (MB)
	368308  -  ResidentSetSize of job (KB)
...
006 (3444396.005.000) 01/30 15:57:59 Image size of job updated: 435544
	360  -  MemoryUsage of job (MB)
	368320  -  ResidentSetSize of job (KB)
...
006 (3444396.005.000) 01/30 16:03:00 Image size of job updated: 435544
	360  -  MemoryUsage of job (MB)
	368396  -  ResidentSetSize of job (KB)
...
006 (3444396.005.000) 01/30 16:08:00 Image size of job updated: 435544
	360  -  MemoryUsage of job (MB)
	368444  -  ResidentSetSize of job (KB)
...
006 (3444396.005.000) 01/30 16:13:00 Image size of job updated: 435544
	360  -  MemoryUsage of job (MB)
	368456  -  ResidentSetSize of job (KB)
...
006 (3444396.005.000) 01/30 16:18:01 Image size of job updated: 435544
	360  -  MemoryUsage of job (MB)
	368492  -  ResidentSetSize of job (KB)
...
006 (3444396.005.000) 01/30 16:23:01 Image size of job updated: 435544
	360  -  MemoryUsage of job (MB)
	368524  -  ResidentSetSize of job (KB)
...
006 (3444396.005.000) 01/30 16:33:03 Image size of job updated: 435544
	360  -  MemoryUsage of job (MB)
	368608  -  ResidentSetSize of job (KB)
...
006 (3444396.005.000) 01/30 16:43:03 Image size of job updated: 435544
	361  -  MemoryUsage of job (MB)
	368680  -  ResidentSetSize of job (KB)
...
006 (3444396.005.000) 01/30 16:48:04 Image size of job updated: 435544
	361  -  MemoryUsage of job (MB)
	368692  -  ResidentSetSize of job (KB)
...
006 (3444396.005.000) 01/30 16:53:04 Image size of job updated: 435544
	361  -  MemoryUsage of job (MB)
	368768  -  ResidentSetSize of job (KB)
...
006 (3444396.005.000) 01/30 16:58:04 Image size of job updated: 435544
	361  -  MemoryUsage of job (MB)
	368808  -  ResidentSetSize of job (KB)
...
006 (3444396.005.000) 01/30 17:03:05 Image size of job updated: 435544
	361  -  MemoryUsage of job (MB)
	368848  -  ResidentSetSize of job (KB)
...
006 (3444396.005.000) 01/30 17:08:06 Image size of job updated: 435544
	361  -  MemoryUsage of job (MB)
	368880  -  ResidentSetSize of job (KB)
...
006 (3444396.005.000) 01/30 17:13:06 Image size of job updated: 435544
	361  -  MemoryUsage of job (MB)
	368924  -  ResidentSetSize of job (KB)
...
006 (3444396.005.000) 01/30 17:18:07 Image size of job updated: 435544
	361  -  MemoryUsage of job (MB)
	368936  -  ResidentSetSize of job (KB)
...
006 (3444396.005.000) 01/30 17:23:08 Image size of job updated: 435544
	361  -  MemoryUsage of job (MB)
	368960  -  ResidentSetSize of job (KB)
...
006 (3444396.005.000) 01/30 17:28:08 Image size of job updated: 435544
	361  -  MemoryUsage of job (MB)
	369020  -  ResidentSetSize of job (KB)
...
006 (3444396.005.000) 01/30 17:33:09 Image size of job updated: 435544
	361  -  MemoryUsage of job (MB)
	369044  -  ResidentSetSize of job (KB)
...
006 (3444396.005.000) 01/30 17:38:10 Image size of job updated: 435544
	361  -  MemoryUsage of job (MB)
	369084  -  ResidentSetSize of job (KB)
...
006 (3444396.005.000) 01/30 17:43:10 Image size of job updated: 435544
	361  -  MemoryUsage of job (MB)
	369104  -  ResidentSetSize of job (KB)
...
006 (3444396.005.000) 01/30 17:48:11 Image size of job updated: 435544
	361  -  MemoryUsage of job (MB)
	369148  -  ResidentSetSize of job (KB)
...
006 (3444396.005.000) 01/30 17:53:12 Image size of job updated: 435544
	361  -  MemoryUsage of job (MB)
	369228  -  ResidentSetSize of job (KB)
...
006 (3444396.005.000) 01/30 18:03:13 Image size of job updated: 435544
	361  -  MemoryUsage of job (MB)
	369272  -  ResidentSetSize of job (KB)
...
006 (3444396.005.000) 01/30 18:08:14 Image size of job updated: 435544
	361  -  MemoryUsage of job (MB)
	369296  -  ResidentSetSize of job (KB)
...
006 (3444396.005.000) 01/30 18:13:14 Image size of job updated: 435544
	361  -  MemoryUsage of job (MB)
	369328  -  ResidentSetSize of job (KB)
...
006 (3444396.005.000) 01/30 18:18:15 Image size of job updated: 435544
	361  -  MemoryUsage of job (MB)
	369388  -  ResidentSetSize of job (KB)
...
006 (3444396.005.000) 01/30 18:23:16 Image size of job updated: 435544
	361  -  MemoryUsage of job (MB)
	369432  -  ResidentSetSize of job (KB)
...
006 (3444396.005.000) 01/30 18:28:16 Image size of job updated: 435544
	361  -  MemoryUsage of job (MB)
	369460  -  ResidentSetSize of job (KB)
...
006 (3444396.005.000) 01/30 18:33:16 Image size of job updated: 435544
	361  -  MemoryUsage of job (MB)
	369484  -  ResidentSetSize of job (KB)
...
006 (3444396.005.000) 01/30 18:38:17 Image size of job updated: 435544
	361  -  MemoryUsage of job (MB)
	369508  -  ResidentSetSize of job (KB)
...
006 (3444396.005.000) 01/30 18:43:17 Image size of job updated: 435544
	361  -  MemoryUsage of job (MB)
	369544  -  ResidentSetSize of job (KB)
...
006 (3444396.005.000) 01/30 18:53:18 Image size of job updated: 435544
	361  -  MemoryUsage of job (MB)
	369620  -  ResidentSetSize of job (KB)
...
006 (3444396.005.000) 01/30 18:58:18 Image size of job updated: 435544
	362  -  MemoryUsage of job (MB)
	369676  -  ResidentSetSize of job (KB)
...
006 (3444396.005.000) 01/30 19:03:19 Image size of job updated: 435544
	362  -  MemoryUsage of job (MB)
	369708  -  ResidentSetSize of job (KB)
...
006 (3444396.005.000) 01/30 19:08:19 Image size of job updated: 435544
	362  -  MemoryUsage of job (MB)
	369728  -  ResidentSetSize of job (KB)
...
006 (3444396.005.000) 01/30 19:13:19 Image size of job updated: 435544
	362  -  MemoryUsage of job (MB)
	369828  -  ResidentSetSize of job (KB)
...
006 (3444396.005.000) 01/30 19:18:20 Image size of job updated: 435544
	362  -  MemoryUsage of job (MB)
	369872  -  ResidentSetSize of job (KB)
...
006 (3444396.005.000) 01/30 19:23:20 Image size of job updated: 435544
	362  -  MemoryUsage of job (MB)
	369912  -  ResidentSetSize of job (KB)
...
006 (3444396.005.000) 01/30 19:28:20 Image size of job updated: 435544
	362  -  MemoryUsage of job (MB)
	369952  -  ResidentSetSize of job (KB)
...
006 (3444396.005.000) 01/30 19:33:21 Image size of job updated: 435544
	362  -  MemoryUsage of job (MB)
	370004  -  ResidentSetSize of job (KB)
...
006 (3444396.005.000) 01/30 19:38:21 Image size of job updated: 435544
	362  -  MemoryUsage of job (MB)
	370020  -  ResidentSetSize of job (KB)
...
006 (3444396.005.000) 01/30 19:48:22 Image size of job updated: 435544
	362  -  MemoryUsage of job (MB)
	370120  -  ResidentSetSize of job (KB)
...
006 (3444396.005.000) 01/30 19:53:22 Image size of job updated: 435544
	362  -  MemoryUsage of job (MB)
	370156  -  ResidentSetSize of job (KB)
...
006 (3444396.005.000) 01/30 19:58:22 Image size of job updated: 435544
	362  -  MemoryUsage of job (MB)
	370212  -  ResidentSetSize of job (KB)
...
006 (3444396.005.000) 01/30 20:03:24 Image size of job updated: 435544
	362  -  MemoryUsage of job (MB)
	370228  -  ResidentSetSize of job (KB)
...
006 (3444396.005.000) 01/30 20:08:24 Image size of job updated: 435544
	362  -  MemoryUsage of job (MB)
	370264  -  ResidentSetSize of job (KB)
...
006 (3444396.005.000) 01/30 20:13:24 Image size of job updated: 435544
	362  -  MemoryUsage of job (MB)
	370284  -  ResidentSetSize of job (KB)
...
006 (3444396.005.000) 01/30 20:18:25 Image size of job updated: 435544
	362  -  MemoryUsage of job (MB)
	370332  -  ResidentSetSize of job (KB)
...
006 (3444396.005.000) 01/30 20:23:26 Image size of job updated: 435544
	362  -  MemoryUsage of job (MB)
	370408  -  ResidentSetSize of job (KB)
...
006 (3444396.005.000) 01/30 20:28:26 Image size of job updated: 435544
	362  -  MemoryUsage of job (MB)
	370472  -  ResidentSetSize of job (KB)
...
006 (3444396.005.000) 01/30 20:33:26 Image size of job updated: 435544
	362  -  MemoryUsage of job (MB)
	370560  -  ResidentSetSize of job (KB)
...
006 (3444396.005.000) 01/30 20:38:27 Image size of job updated: 435544
	362  -  MemoryUsage of job (MB)
	370596  -  ResidentSetSize of job (KB)
...
006 (3444396.005.000) 01/30 20:43:27 Image size of job updated: 435544
	362  -  MemoryUsage of job (MB)
	370636  -  ResidentSetSize of job (KB)
...
006 (3444396.005.000) 01/30 20:48:27 Image size of job updated: 435544
	362  -  MemoryUsage of job (MB)
	370664  -  ResidentSetSize of job (KB)
...
006 (3444396.005.000) 01/30 20:53:28 Image size of job updated: 435544
	363  -  MemoryUsage of job (MB)
	370696  -  ResidentSetSize of job (KB)
...
006 (3444396.005.000) 01/30 20:58:28 Image size of job updated: 435544
	363  -  MemoryUsage of job (MB)
	370772  -  ResidentSetSize of job (KB)
...
006 (3444396.005.000) 01/30 21:03:28 Image size of job updated: 435544
	363  -  MemoryUsage of job (MB)
	370784  -  ResidentSetSize of job (KB)
...
006 (3444396.005.000) 01/30 21:08:29 Image size of job updated: 435544
	363  -  MemoryUsage of job (MB)
	370796  -  ResidentSetSize of job (KB)
...
006 (3444396.005.000) 01/30 21:13:29 Image size of job updated: 435544
	363  -  MemoryUsage of job (MB)
	370908  -  ResidentSetSize of job (KB)
...
006 (3444396.005.000) 01/30 21:23:30 Image size of job updated: 435544
	363  -  MemoryUsage of job (MB)
	370932  -  ResidentSetSize of job (KB)
...
006 (3444396.005.000) 01/30 21:28:31 Image size of job updated: 435544
	363  -  MemoryUsage of job (MB)
	371036  -  ResidentSetSize of job (KB)
...
006 (3444396.005.000) 01/30 21:33:31 Image size of job updated: 435544
	363  -  MemoryUsage of job (MB)
	371068  -  ResidentSetSize of job (KB)
...
006 (3444396.005.000) 01/30 21:38:33 Image size of job updated: 435544
	363  -  MemoryUsage of job (MB)
	371088  -  ResidentSetSize of job (KB)
...
006 (3444396.005.000) 01/30 21:43:33 Image size of job updated: 435544
	363  -  MemoryUsage of job (MB)
	371108  -  ResidentSetSize of job (KB)
...
006 (3444396.005.000) 01/30 21:48:33 Image size of job updated: 435544
	363  -  MemoryUsage of job (MB)
	371140  -  ResidentSetSize of job (KB)
...
006 (3444396.005.000) 01/30 21:53:34 Image size of job updated: 435544
	363  -  MemoryUsage of job (MB)
	371172  -  ResidentSetSize of job (KB)
...
006 (3444396.005.000) 01/30 21:58:35 Image size of job updated: 435544
	363  -  MemoryUsage of job (MB)
	371212  -  ResidentSetSize of job (KB)
...
006 (3444396.005.000) 01/30 22:03:35 Image size of job updated: 435544
	363  -  MemoryUsage of job (MB)
	371240  -  ResidentSetSize of job (KB)
...
006 (3444396.005.000) 01/30 22:08:36 Image size of job updated: 435544
	363  -  MemoryUsage of job (MB)
	371324  -  ResidentSetSize of job (KB)
...
006 (3444396.005.000) 01/30 22:13:37 Image size of job updated: 435544
	363  -  MemoryUsage of job (MB)
	371372  -  ResidentSetSize of job (KB)
...
006 (3444396.005.000) 01/30 22:18:37 Image size of job updated: 435544
	363  -  MemoryUsage of job (MB)
	371448  -  ResidentSetSize of job (KB)
...
006 (3444396.005.000) 01/30 22:23:37 Image size of job updated: 435544
	363  -  MemoryUsage of job (MB)
	371460  -  ResidentSetSize of job (KB)
...
006 (3444396.005.000) 01/30 22:28:38 Image size of job updated: 435544
	363  -  MemoryUsage of job (MB)
	371476  -  ResidentSetSize of job (KB)
...
006 (3444396.005.000) 01/30 22:33:38 Image size of job updated: 435544
	363  -  MemoryUsage of job (MB)
	371544  -  ResidentSetSize of job (KB)
...
006 (3444396.005.000) 01/30 22:38:38 Image size of job updated: 435544
	364  -  MemoryUsage of job (MB)
	371724  -  ResidentSetSize of job (KB)
...
006 (3444396.005.000) 01/30 22:43:39 Image size of job updated: 435544
	364  -  MemoryUsage of job (MB)
	371776  -  ResidentSetSize of job (KB)
...
006 (3444396.005.000) 01/30 22:48:40 Image size of job updated: 435544
	364  -  MemoryUsage of job (MB)
	371840  -  ResidentSetSize of job (KB)
...
006 (3444396.005.000) 01/30 23:38:46 Image size of job updated: 435544
	364  -  MemoryUsage of job (MB)
	371852  -  ResidentSetSize of job (KB)
...
006 (3444396.005.000) 01/30 23:43:46 Image size of job updated: 435544
	364  -  MemoryUsage of job (MB)
	371928  -  ResidentSetSize of job (KB)
...
006 (3444396.005.000) 01/30 23:48:46 Image size of job updated: 435544
	364  -  MemoryUsage of job (MB)
	371972  -  ResidentSetSize of job (KB)
...
006 (3444396.005.000) 01/30 23:53:47 Image size of job updated: 435544
	364  -  MemoryUsage of job (MB)
	371980  -  ResidentSetSize of job (KB)
...
006 (3444396.005.000) 01/30 23:58:47 Image size of job updated: 435544
	364  -  MemoryUsage of job (MB)
	372064  -  ResidentSetSize of job (KB)
...
006 (3444396.005.000) 01/31 00:03:47 Image size of job updated: 435544
	364  -  MemoryUsage of job (MB)
	372228  -  ResidentSetSize of job (KB)
...
006 (3444396.005.000) 01/31 00:13:48 Image size of job updated: 435544
	364  -  MemoryUsage of job (MB)
	372232  -  ResidentSetSize of job (KB)
...
006 (3444396.005.000) 01/31 00:18:48 Image size of job updated: 435544
	364  -  MemoryUsage of job (MB)
	372256  -  ResidentSetSize of job (KB)
...
006 (3444396.005.000) 01/31 00:23:49 Image size of job updated: 435544
	364  -  MemoryUsage of job (MB)
	372280  -  ResidentSetSize of job (KB)
...
006 (3444396.005.000) 01/31 00:38:51 Image size of job updated: 435544
	364  -  MemoryUsage of job (MB)
	372296  -  ResidentSetSize of job (KB)
...
006 (3444396.005.000) 01/31 00:43:51 Image size of job updated: 435544
	364  -  MemoryUsage of job (MB)
	372308  -  ResidentSetSize of job (KB)
...
006 (3444396.005.000) 01/31 01:33:57 Image size of job updated: 435544
	364  -  MemoryUsage of job (MB)
	372316  -  ResidentSetSize of job (KB)
...
006 (3444396.005.000) 01/31 01:43:58 Image size of job updated: 435544
	364  -  MemoryUsage of job (MB)
	372336  -  ResidentSetSize of job (KB)
...
006 (3444396.005.000) 01/31 02:04:00 Image size of job updated: 435544
	364  -  MemoryUsage of job (MB)
	372356  -  ResidentSetSize of job (KB)
...
006 (3444396.005.000) 01/31 02:14:00 Image size of job updated: 435544
	364  -  MemoryUsage of job (MB)
	372368  -  ResidentSetSize of job (KB)
...
006 (3444396.005.000) 01/31 02:19:02 Image size of job updated: 435544
	364  -  MemoryUsage of job (MB)
	372372  -  ResidentSetSize of job (KB)
...
006 (3444396.005.000) 01/31 02:44:04 Image size of job updated: 435544
	364  -  MemoryUsage of job (MB)
	372396  -  ResidentSetSize of job (KB)
...
006 (3444396.005.000) 01/31 02:49:04 Image size of job updated: 435544
	364  -  MemoryUsage of job (MB)
	372436  -  ResidentSetSize of job (KB)
...
006 (3444396.005.000) 01/31 02:59:05 Image size of job updated: 435544
	364  -  MemoryUsage of job (MB)
	372440  -  ResidentSetSize of job (KB)
...
006 (3444396.005.000) 01/31 03:19:07 Image size of job updated: 435544
	364  -  MemoryUsage of job (MB)
	372464  -  ResidentSetSize of job (KB)
...
006 (3444396.005.000) 01/31 03:39:09 Image size of job updated: 435544
	364  -  MemoryUsage of job (MB)
	372484  -  ResidentSetSize of job (KB)
...
006 (3444396.005.000) 01/31 03:49:10 Image size of job updated: 435544
	364  -  MemoryUsage of job (MB)
	372520  -  ResidentSetSize of job (KB)
...
006 (3444396.005.000) 01/31 03:59:11 Image size of job updated: 435544
	364  -  MemoryUsage of job (MB)
	372556  -  ResidentSetSize of job (KB)
...
006 (3444396.005.000) 01/31 04:59:17 Image size of job updated: 435544
	364  -  MemoryUsage of job (MB)
	372588  -  ResidentSetSize of job (KB)
...
006 (3444396.005.000) 01/31 05:14:19 Image size of job updated: 435544
	364  -  MemoryUsage of job (MB)
	372708  -  ResidentSetSize of job (KB)
...
006 (3444396.005.000) 01/31 05:24:21 Image size of job updated: 435544
	364  -  MemoryUsage of job (MB)
	372716  -  ResidentSetSize of job (KB)
...
006 (3444396.005.000) 01/31 05:34:21 Image size of job updated: 435544
	364  -  MemoryUsage of job (MB)
	372732  -  ResidentSetSize of job (KB)
...
006 (3444396.005.000) 01/31 05:39:22 Image size of job updated: 435544
	365  -  MemoryUsage of job (MB)
	372808  -  ResidentSetSize of job (KB)
...
006 (3444396.005.000) 01/31 05:49:23 Image size of job updated: 435544
	365  -  MemoryUsage of job (MB)
	372872  -  ResidentSetSize of job (KB)
...
006 (3444396.005.000) 01/31 06:14:26 Image size of job updated: 435544
	365  -  MemoryUsage of job (MB)
	372884  -  ResidentSetSize of job (KB)
...
006 (3444396.005.000) 01/31 06:24:27 Image size of job updated: 435544
	365  -  MemoryUsage of job (MB)
	372896  -  ResidentSetSize of job (KB)
...
006 (3444396.005.000) 01/31 06:44:29 Image size of job updated: 435544
	365  -  MemoryUsage of job (MB)
	372904  -  ResidentSetSize of job (KB)
...
006 (3444396.005.000) 01/31 06:49:30 Image size of job updated: 435544
	365  -  MemoryUsage of job (MB)
	372920  -  ResidentSetSize of job (KB)
...
006 (3444396.005.000) 01/31 06:59:31 Image size of job updated: 435544
	365  -  MemoryUsage of job (MB)
	372932  -  ResidentSetSize of job (KB)
...
006 (3444396.005.000) 01/31 07:19:33 Image size of job updated: 435544
	365  -  MemoryUsage of job (MB)
	373048  -  ResidentSetSize of job (KB)
...
006 (3444396.005.000) 01/31 07:29:34 Image size of job updated: 435544
	365  -  MemoryUsage of job (MB)
	373084  -  ResidentSetSize of job (KB)
...
006 (3444396.005.000) 01/31 07:44:36 Image size of job updated: 435544
	365  -  MemoryUsage of job (MB)
	373104  -  ResidentSetSize of job (KB)
...
006 (3444396.005.000) 01/31 07:49:37 Image size of job updated: 435544
	365  -  MemoryUsage of job (MB)
	373148  -  ResidentSetSize of job (KB)
...
006 (3444396.005.000) 01/31 08:04:38 Image size of job updated: 435544
	365  -  MemoryUsage of job (MB)
	373188  -  ResidentSetSize of job (KB)
...
006 (3444396.005.000) 01/31 08:09:39 Image size of job updated: 435544
	365  -  MemoryUsage of job (MB)
	373204  -  ResidentSetSize of job (KB)
...
006 (3444396.005.000) 01/31 08:19:39 Image size of job updated: 435544
	365  -  MemoryUsage of job (MB)
	373244  -  ResidentSetSize of job (KB)
...
006 (3444396.005.000) 01/31 08:24:41 Image size of job updated: 435544
	365  -  MemoryUsage of job (MB)
	373288  -  ResidentSetSize of job (KB)
...
006 (3444396.005.000) 01/31 08:34:41 Image size of job updated: 435544
	365  -  MemoryUsage of job (MB)
	373312  -  ResidentSetSize of job (KB)
...
006 (3444396.005.000) 01/31 08:54:43 Image size of job updated: 435544
	365  -  MemoryUsage of job (MB)
	373320  -  ResidentSetSize of job (KB)
...
006 (3444396.005.000) 01/31 09:04:44 Image size of job updated: 435544
	365  -  MemoryUsage of job (MB)
	373344  -  ResidentSetSize of job (KB)
...
006 (3444396.005.000) 01/31 09:09:44 Image size of job updated: 435544
	365  -  MemoryUsage of job (MB)
	373356  -  ResidentSetSize of job (KB)
...
006 (3444396.005.000) 01/31 09:14:45 Image size of job updated: 435544
	365  -  MemoryUsage of job (MB)
	373388  -  ResidentSetSize of job (KB)
...
006 (3444396.005.000) 01/31 09:19:46 Image size of job updated: 435544
	365  -  MemoryUsage of job (MB)
	373400  -  ResidentSetSize of job (KB)
...
006 (3444396.005.000) 01/31 09:24:46 Image size of job updated: 435544
	365  -  MemoryUsage of job (MB)
	373436  -  ResidentSetSize of job (KB)
...
006 (3444396.005.000) 01/31 09:29:46 Image size of job updated: 435544
	365  -  MemoryUsage of job (MB)
	373460  -  ResidentSetSize of job (KB)
...
006 (3444396.005.000) 01/31 09:34:47 Image size of job updated: 435544
	365  -  MemoryUsage of job (MB)
	373464  -  ResidentSetSize of job (KB)
...
006 (3444396.005.000) 01/31 09:39:48 Image size of job updated: 435544
	365  -  MemoryUsage of job (MB)
	373476  -  ResidentSetSize of job (KB)
...
006 (3444396.005.000) 01/31 09:49:48 Image size of job updated: 435544
	365  -  MemoryUsage of job (MB)
	373484  -  ResidentSetSize of job (KB)
...
006 (3444396.005.000) 01/31 09:59:50 Image size of job updated: 435544
	365  -  MemoryUsage of job (MB)
	373504  -  ResidentSetSize of job (KB)
...
006 (3444396.005.000) 01/31 10:04:50 Image size of job updated: 435544
	365  -  MemoryUsage of job (MB)
	373512  -  ResidentSetSize of job (KB)
...
006 (3444396.005.000) 01/31 10:09:50 Image size of job updated: 435544
	365  -  MemoryUsage of job (MB)
	373524  -  ResidentSetSize of job (KB)
...
006 (3444396.005.000) 01/31 10:19:52 Image size of job updated: 435544
	365  -  MemoryUsage of job (MB)
	373536  -  ResidentSetSize of job (KB)
...
006 (3444396.005.000) 01/31 10:24:52 Image size of job updated: 435544
	365  -  MemoryUsage of job (MB)
	373568  -  ResidentSetSize of job (KB)
...
006 (3444396.005.000) 01/31 10:29:52 Image size of job updated: 435544
	365  -  MemoryUsage of job (MB)
	373604  -  ResidentSetSize of job (KB)
...
006 (3444396.005.000) 01/31 10:34:53 Image size of job updated: 435544
	365  -  MemoryUsage of job (MB)
	373620  -  ResidentSetSize of job (KB)
...
006 (3444396.005.000) 01/31 10:49:54 Image size of job updated: 435544
	365  -  MemoryUsage of job (MB)
	373648  -  ResidentSetSize of job (KB)
...
006 (3444396.005.000) 01/31 10:59:55 Image size of job updated: 435544
	365  -  MemoryUsage of job (MB)
	373664  -  ResidentSetSize of job (KB)
...
006 (3444396.005.000) 01/31 11:04:56 Image size of job updated: 435544
	365  -  MemoryUsage of job (MB)
	373676  -  ResidentSetSize of job (KB)
...
006 (3444396.005.000) 01/31 11:09:57 Image size of job updated: 435544
	365  -  MemoryUsage of job (MB)
	373692  -  ResidentSetSize of job (KB)
...
006 (3444396.005.000) 01/31 11:14:57 Image size of job updated: 435544
	365  -  MemoryUsage of job (MB)
	373736  -  ResidentSetSize of job (KB)
...
006 (3444396.005.000) 01/31 11:19:58 Image size of job updated: 435544
	366  -  MemoryUsage of job (MB)
	373772  -  ResidentSetSize of job (KB)
...
006 (3444396.005.000) 01/31 11:35:00 Image size of job updated: 435544
	366  -  MemoryUsage of job (MB)
	373776  -  ResidentSetSize of job (KB)
...
006 (3444396.005.000) 01/31 11:45:01 Image size of job updated: 435544
	366  -  MemoryUsage of job (MB)
	373792  -  ResidentSetSize of job (KB)
...
006 (3444396.005.000) 01/31 11:50:01 Image size of job updated: 435544
	366  -  MemoryUsage of job (MB)
	373804  -  ResidentSetSize of job (KB)
...
006 (3444396.005.000) 01/31 11:55:02 Image size of job updated: 435544
	366  -  MemoryUsage of job (MB)
	373828  -  ResidentSetSize of job (KB)
...
006 (3444396.005.000) 01/31 12:00:02 Image size of job updated: 435544
	366  -  MemoryUsage of job (MB)
	373860  -  ResidentSetSize of job (KB)
...
006 (3444396.005.000) 01/31 12:05:02 Image size of job updated: 435544
	366  -  MemoryUsage of job (MB)
	373900  -  ResidentSetSize of job (KB)
...
006 (3444396.005.000) 01/31 12:10:04 Image size of job updated: 435544
	366  -  MemoryUsage of job (MB)
	373920  -  ResidentSetSize of job (KB)
...
006 (3444396.005.000) 01/31 12:45:07 Image size of job updated: 435544
	366  -  MemoryUsage of job (MB)
	373924  -  ResidentSetSize of job (KB)
...
006 (3444396.005.000) 01/31 12:50:08 Image size of job updated: 435544
	366  -  MemoryUsage of job (MB)
	373964  -  ResidentSetSize of job (KB)
...
006 (3444396.005.000) 01/31 12:55:08 Image size of job updated: 435544
	366  -  MemoryUsage of job (MB)
	373972  -  ResidentSetSize of job (KB)
...
006 (3444396.005.000) 01/31 13:05:10 Image size of job updated: 435544
	366  -  MemoryUsage of job (MB)
	373980  -  ResidentSetSize of job (KB)
...
006 (3444396.005.000) 01/31 13:10:10 Image size of job updated: 435544
	366  -  MemoryUsage of job (MB)
	374004  -  ResidentSetSize of job (KB)
...
006 (3444396.005.000) 01/31 13:15:10 Image size of job updated: 435544
	366  -  MemoryUsage of job (MB)
	374012  -  ResidentSetSize of job (KB)
...
006 (3444396.005.000) 01/31 13:20:11 Image size of job updated: 435544
	366  -  MemoryUsage of job (MB)
	374024  -  ResidentSetSize of job (KB)
...
006 (3444396.005.000) 01/31 13:25:12 Image size of job updated: 435544
	366  -  MemoryUsage of job (MB)
	374028  -  ResidentSetSize of job (KB)
...
006 (3444396.005.000) 01/31 13:30:12 Image size of job updated: 435544
	366  -  MemoryUsage of job (MB)
	374060  -  ResidentSetSize of job (KB)
...
006 (3444396.005.000) 01/31 13:35:13 Image size of job updated: 435544
	366  -  MemoryUsage of job (MB)
	374096  -  ResidentSetSize of job (KB)
...
006 (3444396.005.000) 01/31 13:50:14 Image size of job updated: 435544
	366  -  MemoryUsage of job (MB)
	374104  -  ResidentSetSize of job (KB)
...
006 (3444396.005.000) 01/31 13:55:15 Image size of job updated: 435544
	366  -  MemoryUsage of job (MB)
	374140  -  ResidentSetSize of job (KB)
...
006 (3444396.005.000) 01/31 14:00:15 Image size of job updated: 435544
	366  -  MemoryUsage of job (MB)
	374144  -  ResidentSetSize of job (KB)
...
006 (3444396.005.000) 01/31 14:05:15 Image size of job updated: 435544
	366  -  MemoryUsage of job (MB)
	374172  -  ResidentSetSize of job (KB)
...
006 (3444396.005.000) 01/31 14:25:18 Image size of job updated: 435544
	366  -  MemoryUsage of job (MB)
	374200  -  ResidentSetSize of job (KB)
...
006 (3444396.005.000) 01/31 14:30:19 Image size of job updated: 435544
	366  -  MemoryUsage of job (MB)
	374216  -  ResidentSetSize of job (KB)
...
006 (3444396.005.000) 01/31 14:40:20 Image size of job updated: 435544
	366  -  MemoryUsage of job (MB)
	374232  -  ResidentSetSize of job (KB)
...
006 (3444396.005.000) 01/31 14:45:21 Image size of job updated: 435544
	366  -  MemoryUsage of job (MB)
	374252  -  ResidentSetSize of job (KB)
...
006 (3444396.005.000) 01/31 14:55:21 Image size of job updated: 435544
	366  -  MemoryUsage of job (MB)
	374272  -  ResidentSetSize of job (KB)
...
006 (3444396.005.000) 01/31 15:10:22 Image size of job updated: 435544
	366  -  MemoryUsage of job (MB)
	374276  -  ResidentSetSize of job (KB)
...
006 (3444396.005.000) 01/31 15:20:23 Image size of job updated: 435544
	366  -  MemoryUsage of job (MB)
	374292  -  ResidentSetSize of job (KB)
...
006 (3444396.005.000) 01/31 15:25:23 Image size of job updated: 435544
	366  -  MemoryUsage of job (MB)
	374328  -  ResidentSetSize of job (KB)
...
006 (3444396.005.000) 01/31 15:30:24 Image size of job updated: 435544
	366  -  MemoryUsage of job (MB)
	374348  -  ResidentSetSize of job (KB)
...
006 (3444396.005.000) 01/31 15:35:24 Image size of job updated: 435544
	366  -  MemoryUsage of job (MB)
	374360  -  ResidentSetSize of job (KB)
...
006 (3444396.005.000) 01/31 15:45:25 Image size of job updated: 435544
	366  -  MemoryUsage of job (MB)
	374396  -  ResidentSetSize of job (KB)
...
006 (3444396.005.000) 01/31 16:10:28 Image size of job updated: 435544
	366  -  MemoryUsage of job (MB)
	374416  -  ResidentSetSize of job (KB)
...
006 (3444396.005.000) 01/31 16:20:30 Image size of job updated: 435544
	366  -  MemoryUsage of job (MB)
	374436  -  ResidentSetSize of job (KB)
...
006 (3444396.005.000) 01/31 16:25:30 Image size of job updated: 435544
	366  -  MemoryUsage of job (MB)
	374456  -  ResidentSetSize of job (KB)
...
006 (3444396.005.000) 01/31 16:30:31 Image size of job updated: 435544
	366  -  MemoryUsage of job (MB)
	374472  -  ResidentSetSize of job (KB)
...
006 (3444396.005.000) 01/31 16:35:32 Image size of job updated: 435544
	366  -  MemoryUsage of job (MB)
	374520  -  ResidentSetSize of job (KB)
...
006 (3444396.005.000) 01/31 16:50:33 Image size of job updated: 435544
	366  -  MemoryUsage of job (MB)
	374536  -  ResidentSetSize of job (KB)
...
006 (3444396.005.000) 01/31 16:55:33 Image size of job updated: 435544
	366  -  MemoryUsage of job (MB)
	374584  -  ResidentSetSize of job (KB)
...
006 (3444396.005.000) 01/31 17:15:34 Image size of job updated: 435544
	366  -  MemoryUsage of job (MB)
	374604  -  ResidentSetSize of job (KB)
...
006 (3444396.005.000) 01/31 17:20:35 Image size of job updated: 435544
	366  -  MemoryUsage of job (MB)
	374624  -  ResidentSetSize of job (KB)
...
006 (3444396.005.000) 01/31 17:25:35 Image size of job updated: 435544
	366  -  MemoryUsage of job (MB)
	374700  -  ResidentSetSize of job (KB)
...
040 (3444396.005.000) 02/01 07:53:51 Started transferring input files
	Transferring to host: <188.184.182.241:9618?addrs=188.184.182.241-9618+[2001-1458-301-2b--100-105]-9618&noUDP&sock=5123_5de9_79985>
...
040 (3444396.005.000) 02/01 07:53:51 Finished transferring input files
...
001 (3444396.005.000) 02/01 07:53:52 Job executing on host: <188.184.182.241:9618?addrs=188.184.182.241-9618+[2001-1458-301-2b--100-105]-9618&noUDP&sock=3271_3660_3>
...
040 (3444396.005.000) 02/01 07:54:29 Started transferring output files
...
040 (3444396.005.000) 02/01 07:54:29 Finished transferring output files
...
005 (3444396.005.000) 02/01 07:54:29 Job terminated.
	(1) Normal termination (return value 0)
		Usr 0 00:00:06, Sys 0 00:00:04  -  Run Remote Usage
		Usr 0 00:00:00, Sys 0 00:00:00  -  Run Local Usage
		Usr 0 00:00:06, Sys 0 00:00:04  -  Total Remote Usage
		Usr 0 00:00:00, Sys 0 00:00:00  -  Total Local Usage
	9715  -  Run Bytes Sent By Job
	493  -  Run Bytes Received By Job
	9715  -  Total Bytes Sent By Job
	986  -  Total Bytes Received By Job
	Partitionable Resources :    Usage  Request Allocated 
	   Cpus                 :                 1           
	   Disk (KB)            :       24       35   3053611 
	   Memory (MB)          :      367     2000      2000 
...
